%!PS-Adobe-3.0 EPSF-3.0
%%Creator: (MATLAB, The Mathworks, Inc. Version 8.5.0.197613 \(R2015a\). Operating System: Linux)
%%Title: (/home/jlopez/Dropbox/Third quartile/CFD/LBM_project/latex/plots/vdW.eps)
%%CreationDate: 2016-04-13T18:24:13
%%Pages: (atend)
%%BoundingBox: 0 0 414 314
%%LanguageLevel: 2
%%EndComments
%%BeginProlog
%%BeginResource: procset (Apache XML Graphics Std ProcSet) 1.2 0
%%Version: 1.2 0
%%Copyright: (Copyright 2001-2003,2010 The Apache Software Foundation. License terms: http://www.apache.org/licenses/LICENSE-2.0)
/bd{bind def}bind def
/ld{load def}bd
/GR/grestore ld
/M/moveto ld
/LJ/setlinejoin ld
/C/curveto ld
/f/fill ld
/LW/setlinewidth ld
/GC/setgray ld
/t/show ld
/N/newpath ld
/CT/concat ld
/cp/closepath ld
/S/stroke ld
/L/lineto ld
/CC/setcmykcolor ld
/A/ashow ld
/GS/gsave ld
/RC/setrgbcolor ld
/RM/rmoveto ld
/ML/setmiterlimit ld
/re {4 2 roll M
1 index 0 rlineto
0 exch rlineto
neg 0 rlineto
cp } bd
/_ctm matrix def
/_tm matrix def
/BT { _ctm currentmatrix pop matrix _tm copy pop 0 0 moveto } bd
/ET { _ctm setmatrix } bd
/iTm { _ctm setmatrix _tm concat } bd
/Tm { _tm astore pop iTm 0 0 moveto } bd
/ux 0.0 def
/uy 0.0 def
/F {
  /Tp exch def
  /Tf exch def
  Tf findfont Tp scalefont setfont
  /cf Tf def  /cs Tp def
} bd
/ULS {currentpoint /uy exch def /ux exch def} bd
/ULE {
  /Tcx currentpoint pop def
  gsave
  newpath
  cf findfont cs scalefont dup
  /FontMatrix get 0 get /Ts exch def /FontInfo get dup
  /UnderlinePosition get Ts mul /To exch def
  /UnderlineThickness get Ts mul /Tt exch def
  ux uy To add moveto  Tcx uy To add lineto
  Tt setlinewidth stroke
  grestore
} bd
/OLE {
  /Tcx currentpoint pop def
  gsave
  newpath
  cf findfont cs scalefont dup
  /FontMatrix get 0 get /Ts exch def /FontInfo get dup
  /UnderlinePosition get Ts mul /To exch def
  /UnderlineThickness get Ts mul /Tt exch def
  ux uy To add cs add moveto Tcx uy To add cs add lineto
  Tt setlinewidth stroke
  grestore
} bd
/SOE {
  /Tcx currentpoint pop def
  gsave
  newpath
  cf findfont cs scalefont dup
  /FontMatrix get 0 get /Ts exch def /FontInfo get dup
  /UnderlinePosition get Ts mul /To exch def
  /UnderlineThickness get Ts mul /Tt exch def
  ux uy To add cs 10 mul 26 idiv add moveto Tcx uy To add cs 10 mul 26 idiv add lineto
  Tt setlinewidth stroke
  grestore
} bd
/QT {
/Y22 exch store
/X22 exch store
/Y21 exch store
/X21 exch store
currentpoint
/Y21 load 2 mul add 3 div exch
/X21 load 2 mul add 3 div exch
/X21 load 2 mul /X22 load add 3 div
/Y21 load 2 mul /Y22 load add 3 div
/X22 load /Y22 load curveto
} bd
/SSPD {
dup length /d exch dict def
{
/v exch def
/k exch def
currentpagedevice k known {
/cpdv currentpagedevice k get def
v cpdv ne {
/upd false def
/nullv v type /nulltype eq def
/nullcpdv cpdv type /nulltype eq def
nullv nullcpdv or
{
/upd true def
} {
/sametype v type cpdv type eq def
sametype {
v type /arraytype eq {
/vlen v length def
/cpdvlen cpdv length def
vlen cpdvlen eq {
0 1 vlen 1 sub {
/i exch def
/obj v i get def
/cpdobj cpdv i get def
obj cpdobj ne {
/upd true def
exit
} if
} for
} {
/upd true def
} ifelse
} {
v type /dicttype eq {
v {
/dv exch def
/dk exch def
/cpddv cpdv dk get def
dv cpddv ne {
/upd true def
exit
} if
} forall
} {
/upd true def
} ifelse
} ifelse
} if
} ifelse
upd true eq {
d k v put
} if
} if
} if
} forall
d length 0 gt {
d setpagedevice
} if
} bd
%%EndResource
%%BeginResource: procset (Apache XML Graphics EPS ProcSet) 1.0 0
%%Version: 1.0 0
%%Copyright: (Copyright 2002-2003 The Apache Software Foundation. License terms: http://www.apache.org/licenses/LICENSE-2.0)
/BeginEPSF { %def
/b4_Inc_state save def         % Save state for cleanup
/dict_count countdictstack def % Count objects on dict stack
/op_count count 1 sub def      % Count objects on operand stack
userdict begin                 % Push userdict on dict stack
/showpage { } def              % Redefine showpage, { } = null proc
0 setgray 0 setlinecap         % Prepare graphics state
1 setlinewidth 0 setlinejoin
10 setmiterlimit [ ] 0 setdash newpath
/languagelevel where           % If level not equal to 1 then
{pop languagelevel             % set strokeadjust and
1 ne                           % overprint to their defaults.
{false setstrokeadjust false setoverprint
} if
} if
} bd
/EndEPSF { %def
count op_count sub {pop} repeat            % Clean up stacks
countdictstack dict_count sub {end} repeat
b4_Inc_state restore
} bd
%%EndResource
%FOPBeginFontDict
%%IncludeResource: font Courier-Bold
%%IncludeResource: font Helvetica
%%IncludeResource: font Courier-BoldOblique
%%IncludeResource: font Courier-Oblique
%%IncludeResource: font Times-Roman
%%IncludeResource: font Helvetica-BoldOblique
%%IncludeResource: font Helvetica-Bold
%%IncludeResource: font Helvetica-Oblique
%%IncludeResource: font Times-BoldItalic
%%IncludeResource: font Courier
%%IncludeResource: font Times-Italic
%%IncludeResource: font Times-Bold
%%IncludeResource: font Symbol
%%IncludeResource: font ZapfDingbats
%FOPEndFontDict
%%BeginResource: encoding WinAnsiEncoding
/WinAnsiEncoding [
/.notdef /.notdef /.notdef /.notdef /.notdef
/.notdef /.notdef /.notdef /.notdef /.notdef
/.notdef /.notdef /.notdef /.notdef /.notdef
/.notdef /.notdef /.notdef /.notdef /.notdef
/.notdef /.notdef /.notdef /.notdef /.notdef
/.notdef /.notdef /.notdef /.notdef /.notdef
/.notdef /.notdef /space /exclam /quotedbl
/numbersign /dollar /percent /ampersand /quotesingle
/parenleft /parenright /asterisk /plus /comma
/hyphen /period /slash /zero /one
/two /three /four /five /six
/seven /eight /nine /colon /semicolon
/less /equal /greater /question /at
/A /B /C /D /E
/F /G /H /I /J
/K /L /M /N /O
/P /Q /R /S /T
/U /V /W /X /Y
/Z /bracketleft /backslash /bracketright /asciicircum
/underscore /quoteleft /a /b /c
/d /e /f /g /h
/i /j /k /l /m
/n /o /p /q /r
/s /t /u /v /w
/x /y /z /braceleft /bar
/braceright /asciitilde /bullet /Euro /bullet
/quotesinglbase /florin /quotedblbase /ellipsis /dagger
/daggerdbl /circumflex /perthousand /Scaron /guilsinglleft
/OE /bullet /Zcaron /bullet /bullet
/quoteleft /quoteright /quotedblleft /quotedblright /bullet
/endash /emdash /asciitilde /trademark /scaron
/guilsinglright /oe /bullet /zcaron /Ydieresis
/space /exclamdown /cent /sterling /currency
/yen /brokenbar /section /dieresis /copyright
/ordfeminine /guillemotleft /logicalnot /sfthyphen /registered
/macron /degree /plusminus /twosuperior /threesuperior
/acute /mu /paragraph /middot /cedilla
/onesuperior /ordmasculine /guillemotright /onequarter /onehalf
/threequarters /questiondown /Agrave /Aacute /Acircumflex
/Atilde /Adieresis /Aring /AE /Ccedilla
/Egrave /Eacute /Ecircumflex /Edieresis /Igrave
/Iacute /Icircumflex /Idieresis /Eth /Ntilde
/Ograve /Oacute /Ocircumflex /Otilde /Odieresis
/multiply /Oslash /Ugrave /Uacute /Ucircumflex
/Udieresis /Yacute /Thorn /germandbls /agrave
/aacute /acircumflex /atilde /adieresis /aring
/ae /ccedilla /egrave /eacute /ecircumflex
/edieresis /igrave /iacute /icircumflex /idieresis
/eth /ntilde /ograve /oacute /ocircumflex
/otilde /odieresis /divide /oslash /ugrave
/uacute /ucircumflex /udieresis /yacute /thorn
/ydieresis
] def
%%EndResource
%FOPBeginFontReencode
/Courier-Bold findfont
dup length dict begin
  {1 index /FID ne {def} {pop pop} ifelse} forall
  /Encoding WinAnsiEncoding def
  currentdict
end
/Courier-Bold exch definefont pop
/Helvetica findfont
dup length dict begin
  {1 index /FID ne {def} {pop pop} ifelse} forall
  /Encoding WinAnsiEncoding def
  currentdict
end
/Helvetica exch definefont pop
/Courier-BoldOblique findfont
dup length dict begin
  {1 index /FID ne {def} {pop pop} ifelse} forall
  /Encoding WinAnsiEncoding def
  currentdict
end
/Courier-BoldOblique exch definefont pop
/Courier-Oblique findfont
dup length dict begin
  {1 index /FID ne {def} {pop pop} ifelse} forall
  /Encoding WinAnsiEncoding def
  currentdict
end
/Courier-Oblique exch definefont pop
/Times-Roman findfont
dup length dict begin
  {1 index /FID ne {def} {pop pop} ifelse} forall
  /Encoding WinAnsiEncoding def
  currentdict
end
/Times-Roman exch definefont pop
/Helvetica-BoldOblique findfont
dup length dict begin
  {1 index /FID ne {def} {pop pop} ifelse} forall
  /Encoding WinAnsiEncoding def
  currentdict
end
/Helvetica-BoldOblique exch definefont pop
/Helvetica-Bold findfont
dup length dict begin
  {1 index /FID ne {def} {pop pop} ifelse} forall
  /Encoding WinAnsiEncoding def
  currentdict
end
/Helvetica-Bold exch definefont pop
/Helvetica-Oblique findfont
dup length dict begin
  {1 index /FID ne {def} {pop pop} ifelse} forall
  /Encoding WinAnsiEncoding def
  currentdict
end
/Helvetica-Oblique exch definefont pop
/Times-BoldItalic findfont
dup length dict begin
  {1 index /FID ne {def} {pop pop} ifelse} forall
  /Encoding WinAnsiEncoding def
  currentdict
end
/Times-BoldItalic exch definefont pop
/Courier findfont
dup length dict begin
  {1 index /FID ne {def} {pop pop} ifelse} forall
  /Encoding WinAnsiEncoding def
  currentdict
end
/Courier exch definefont pop
/Times-Italic findfont
dup length dict begin
  {1 index /FID ne {def} {pop pop} ifelse} forall
  /Encoding WinAnsiEncoding def
  currentdict
end
/Times-Italic exch definefont pop
/Times-Bold findfont
dup length dict begin
  {1 index /FID ne {def} {pop pop} ifelse} forall
  /Encoding WinAnsiEncoding def
  currentdict
end
/Times-Bold exch definefont pop
%FOPEndFontReencode
%%EndProlog
%%Page: 1 1
%%PageBoundingBox: 0 0 414 314
%%BeginPageSetup
[1 0 0 -1 0 314] CT
%%EndPageSetup
GS
[0.75 0 0 0.75 0 -0.25] CT
N
0 0 M
552 0 L
552 419 L
0 419 L
0 0 L
cp
clip
1 GC
N
0 0 552 419 re
f
GR
GS
[0.75 0 0 0.75 0 -0.25] CT
1 GC
N
0 0 552 419 re
f
GR
GS
[0.75 0 0 0.75 0 -0.25] CT
1 GC
N
72 373 M
500 373 L
500 31 L
72 31 L
cp
f
GR
GS
[0.75 0 0 0.75 214.50016 297.24999] CT
0.149 GC
/Helvetica 15 F
GS
[1 0 0 1 0 0] CT
-12.5 14 moveto 
1 -1 scale
(Vm) t 
GR
GR
GS
[0.75 0 0 0.75 0 -0.25] CT
0.149 GC
2 setlinecap
10.0 ML
N
72 373 M
500 373 L
S
GR
GS
[0.75 0 0 0.75 0 -0.25] CT
0.149 GC
2 setlinecap
10.0 ML
N
72 31 M
500 31 L
S
GR
GS
[0.75 0 0 0.75 0 -0.25] CT
0.149 GC
2 setlinecap
10.0 ML
N
72 373 M
72 368.72 L
S
GR
GS
[0.75 0 0 0.75 0 -0.25] CT
0.149 GC
2 setlinecap
10.0 ML
N
119.556 373 M
119.556 368.72 L
S
GR
GS
[0.75 0 0 0.75 0 -0.25] CT
0.149 GC
2 setlinecap
10.0 ML
N
167.111 373 M
167.111 368.72 L
S
GR
GS
[0.75 0 0 0.75 0 -0.25] CT
0.149 GC
2 setlinecap
10.0 ML
N
214.667 373 M
214.667 368.72 L
S
GR
GS
[0.75 0 0 0.75 0 -0.25] CT
0.149 GC
2 setlinecap
10.0 ML
N
262.222 373 M
262.222 368.72 L
S
GR
GS
[0.75 0 0 0.75 0 -0.25] CT
0.149 GC
2 setlinecap
10.0 ML
N
309.778 373 M
309.778 368.72 L
S
GR
GS
[0.75 0 0 0.75 0 -0.25] CT
0.149 GC
2 setlinecap
10.0 ML
N
357.333 373 M
357.333 368.72 L
S
GR
GS
[0.75 0 0 0.75 0 -0.25] CT
0.149 GC
2 setlinecap
10.0 ML
N
404.889 373 M
404.889 368.72 L
S
GR
GS
[0.75 0 0 0.75 0 -0.25] CT
0.149 GC
2 setlinecap
10.0 ML
N
452.444 373 M
452.444 368.72 L
S
GR
GS
[0.75 0 0 0.75 0 -0.25] CT
0.149 GC
2 setlinecap
10.0 ML
N
72 31 M
72 35.28 L
S
GR
GS
[0.75 0 0 0.75 0 -0.25] CT
0.149 GC
2 setlinecap
10.0 ML
N
119.556 31 M
119.556 35.28 L
S
GR
GS
[0.75 0 0 0.75 0 -0.25] CT
0.149 GC
2 setlinecap
10.0 ML
N
167.111 31 M
167.111 35.28 L
S
GR
GS
[0.75 0 0 0.75 0 -0.25] CT
0.149 GC
2 setlinecap
10.0 ML
N
214.667 31 M
214.667 35.28 L
S
GR
GS
[0.75 0 0 0.75 0 -0.25] CT
0.149 GC
2 setlinecap
10.0 ML
N
262.222 31 M
262.222 35.28 L
S
GR
GS
[0.75 0 0 0.75 0 -0.25] CT
0.149 GC
2 setlinecap
10.0 ML
N
309.778 31 M
309.778 35.28 L
S
GR
GS
[0.75 0 0 0.75 0 -0.25] CT
0.149 GC
2 setlinecap
10.0 ML
N
357.333 31 M
357.333 35.28 L
S
GR
GS
[0.75 0 0 0.75 0 -0.25] CT
0.149 GC
2 setlinecap
10.0 ML
N
404.889 31 M
404.889 35.28 L
S
GR
GS
[0.75 0 0 0.75 0 -0.25] CT
0.149 GC
2 setlinecap
10.0 ML
N
452.444 31 M
452.444 35.28 L
S
GR
GS
[0.75 0 0 0.75 54 283.50001] CT
0.149 GC
/Helvetica 13 F
GS
[1 0 0 1 0 0] CT
-14.5 13 moveto 
1 -1 scale
(0.05) t 
GR
GR
GS
[0.75 0 0 0.75 89.66667 283.50001] CT
0.149 GC
/Helvetica 13 F
GS
[1 0 0 1 0 0] CT
-10.5 13 moveto 
1 -1 scale
(0.1) t 
GR
GR
GS
[0.75 0 0 0.75 125.33334 283.50001] CT
0.149 GC
/Helvetica 13 F
GS
[1 0 0 1 0 0] CT
-14.5 13 moveto 
1 -1 scale
(0.15) t 
GR
GR
GS
[0.75 0 0 0.75 161 283.50001] CT
0.149 GC
/Helvetica 13 F
GS
[1 0 0 1 0 0] CT
-10.5 13 moveto 
1 -1 scale
(0.2) t 
GR
GR
GS
[0.75 0 0 0.75 196.66667 283.50001] CT
0.149 GC
/Helvetica 13 F
GS
[1 0 0 1 0 0] CT
-14.5 13 moveto 
1 -1 scale
(0.25) t 
GR
GR
GS
[0.75 0 0 0.75 232.33335 283.50001] CT
0.149 GC
/Helvetica 13 F
GS
[1 0 0 1 0 0] CT
-10.5 13 moveto 
1 -1 scale
(0.3) t 
GR
GR
GS
[0.75 0 0 0.75 267.99998 283.50001] CT
0.149 GC
/Helvetica 13 F
GS
[1 0 0 1 0 0] CT
-14.5 13 moveto 
1 -1 scale
(0.35) t 
GR
GR
GS
[0.75 0 0 0.75 303.66666 283.50001] CT
0.149 GC
/Helvetica 13 F
GS
[1 0 0 1 0 0] CT
-10.5 13 moveto 
1 -1 scale
(0.4) t 
GR
GR
GS
[0.75 0 0 0.75 339.33332 283.50001] CT
0.149 GC
/Helvetica 13 F
GS
[1 0 0 1 0 0] CT
-14.5 13 moveto 
1 -1 scale
(0.45) t 
GR
GR
GS
[0 -0.75 0.75 0 28.25 151.24989] CT
0.149 GC
/Helvetica 15 F
GS
[1 0 0 1 0 0] CT
-5 -4 moveto 
1 -1 scale
(P) t 
GR
GR
GS
[0.75 0 0 0.75 0 -0.25] CT
0.149 GC
2 setlinecap
10.0 ML
N
72 373 M
72 31 L
S
GR
GS
[0.75 0 0 0.75 0 -0.25] CT
0.149 GC
2 setlinecap
10.0 ML
N
500 373 M
500 31 L
S
GR
GS
[0.75 0 0 0.75 0 -0.25] CT
0.149 GC
2 setlinecap
10.0 ML
N
72 373 M
76.28 373 L
S
GR
GS
[0.75 0 0 0.75 0 -0.25] CT
0.149 GC
2 setlinecap
10.0 ML
N
72 316 M
76.28 316 L
S
GR
GS
[0.75 0 0 0.75 0 -0.25] CT
0.149 GC
2 setlinecap
10.0 ML
N
72 259 M
76.28 259 L
S
GR
GS
[0.75 0 0 0.75 0 -0.25] CT
0.149 GC
2 setlinecap
10.0 ML
N
72 202 M
76.28 202 L
S
GR
GS
[0.75 0 0 0.75 0 -0.25] CT
0.149 GC
2 setlinecap
10.0 ML
N
72 145 M
76.28 145 L
S
GR
GS
[0.75 0 0 0.75 0 -0.25] CT
0.149 GC
2 setlinecap
10.0 ML
N
72 88 M
76.28 88 L
S
GR
GS
[0.75 0 0 0.75 0 -0.25] CT
0.149 GC
2 setlinecap
10.0 ML
N
72 31 M
76.28 31 L
S
GR
GS
[0.75 0 0 0.75 0 -0.25] CT
0.149 GC
2 setlinecap
10.0 ML
N
500 373 M
495.72 373 L
S
GR
GS
[0.75 0 0 0.75 0 -0.25] CT
0.149 GC
2 setlinecap
10.0 ML
N
500 316 M
495.72 316 L
S
GR
GS
[0.75 0 0 0.75 0 -0.25] CT
0.149 GC
2 setlinecap
10.0 ML
N
500 259 M
495.72 259 L
S
GR
GS
[0.75 0 0 0.75 0 -0.25] CT
0.149 GC
2 setlinecap
10.0 ML
N
500 202 M
495.72 202 L
S
GR
GS
[0.75 0 0 0.75 0 -0.25] CT
0.149 GC
2 setlinecap
10.0 ML
N
500 145 M
495.72 145 L
S
GR
GS
[0.75 0 0 0.75 0 -0.25] CT
0.149 GC
2 setlinecap
10.0 ML
N
500 88 M
495.72 88 L
S
GR
GS
[0.75 0 0 0.75 0 -0.25] CT
0.149 GC
2 setlinecap
10.0 ML
N
500 31 M
495.72 31 L
S
GR
GS
[0.75 0 0 0.75 50 279.5] CT
0.149 GC
/Helvetica 13 F
GS
[1 0 0 1 0 0] CT
-9 4.5 moveto 
1 -1 scale
(0) t 
GR
GR
GS
[0.75 0 0 0.75 50 236.75] CT
0.149 GC
/Helvetica 13 F
GS
[1 0 0 1 0 0] CT
-17 4.5 moveto 
1 -1 scale
(50) t 
GR
GR
GS
[0.75 0 0 0.75 50 194] CT
0.149 GC
/Helvetica 13 F
GS
[1 0 0 1 0 0] CT
-25 4.5 moveto 
1 -1 scale
(100) t 
GR
GR
GS
[0.75 0 0 0.75 50 151.25] CT
0.149 GC
/Helvetica 13 F
GS
[1 0 0 1 0 0] CT
-25 4.5 moveto 
1 -1 scale
(150) t 
GR
GR
GS
[0.75 0 0 0.75 50 108.5] CT
0.149 GC
/Helvetica 13 F
GS
[1 0 0 1 0 0] CT
-25 4.5 moveto 
1 -1 scale
(200) t 
GR
GR
GS
[0.75 0 0 0.75 50 65.75] CT
0.149 GC
/Helvetica 13 F
GS
[1 0 0 1 0 0] CT
-25 4.5 moveto 
1 -1 scale
(250) t 
GR
GR
GS
[0.75 0 0 0.75 50 23] CT
0.149 GC
/Helvetica 13 F
GS
[1 0 0 1 0 0] CT
-25 4.5 moveto 
1 -1 scale
(300) t 
GR
GR
GS
[0.75 0 0 0.75 0 -0.25] CT
0 0.447 0.741 RC
2 LJ
N
102.005 30.966 M
102.436 32.866 L
103.387 36.964 L
104.338 40.964 L
105.289 44.87 L
106.24 48.686 L
107.191 52.414 L
108.142 56.057 L
109.093 59.618 L
110.044 63.1 L
110.996 66.505 L
111.947 69.837 L
112.898 73.097 L
113.849 76.287 L
114.8 79.41 L
115.751 82.469 L
116.702 85.464 L
117.653 88.398 L
118.604 91.273 L
119.556 94.09 L
120.507 96.851 L
121.458 99.559 L
122.409 102.213 L
123.36 104.817 L
124.311 107.371 L
125.262 109.877 L
126.213 112.336 L
127.164 114.75 L
128.116 117.119 L
129.067 119.445 L
130.018 121.73 L
130.969 123.973 L
131.92 126.177 L
132.871 128.342 L
133.822 130.469 L
134.773 132.56 L
135.724 134.615 L
136.676 136.635 L
137.627 138.622 L
138.578 140.575 L
139.529 142.496 L
140.48 144.385 L
141.431 146.244 L
142.382 148.072 L
143.333 149.872 L
144.284 151.643 L
145.236 153.386 L
146.187 155.101 L
147.138 156.791 L
148.089 158.454 L
S
GR
GS
[0.75 0 0 0.75 0 -0.25] CT
0 0.447 0.741 RC
2 LJ
N
148.089 158.454 M
149.04 160.092 L
149.991 161.704 L
150.942 163.293 L
151.893 164.858 L
152.844 166.4 L
153.796 167.919 L
154.747 169.416 L
155.698 170.891 L
156.649 172.345 L
157.6 173.778 L
158.551 175.191 L
159.502 176.584 L
160.453 177.958 L
161.404 179.312 L
162.356 180.648 L
163.307 181.966 L
164.258 183.265 L
165.209 184.547 L
166.16 185.812 L
167.111 187.06 L
168.062 188.291 L
169.013 189.507 L
169.964 190.706 L
170.916 191.89 L
171.867 193.058 L
172.818 194.211 L
173.769 195.35 L
174.72 196.475 L
175.671 197.585 L
176.622 198.681 L
177.573 199.764 L
178.524 200.833 L
179.476 201.889 L
180.427 202.933 L
181.378 203.964 L
182.329 204.982 L
183.28 205.988 L
184.231 206.982 L
185.182 207.964 L
186.133 208.935 L
187.084 209.895 L
188.036 210.843 L
188.987 211.78 L
189.938 212.707 L
190.889 213.623 L
191.84 214.528 L
192.791 215.424 L
193.742 216.309 L
194.693 217.184 L
S
GR
GS
[0.75 0 0 0.75 0 -0.25] CT
0 0.447 0.741 RC
2 LJ
N
194.693 217.184 M
195.644 218.05 L
196.596 218.906 L
197.547 219.753 L
198.498 220.59 L
199.449 221.418 L
200.4 222.238 L
201.351 223.048 L
202.302 223.85 L
203.253 224.644 L
204.204 225.428 L
205.156 226.205 L
206.107 226.974 L
207.058 227.734 L
208.009 228.487 L
208.96 229.232 L
209.911 229.969 L
210.862 230.699 L
211.813 231.421 L
212.764 232.136 L
213.716 232.844 L
214.667 233.545 L
215.618 234.239 L
216.569 234.926 L
217.52 235.606 L
218.471 236.279 L
219.422 236.946 L
220.373 237.607 L
221.324 238.261 L
222.276 238.909 L
223.227 239.55 L
224.178 240.186 L
225.129 240.815 L
226.08 241.439 L
227.031 242.056 L
227.982 242.668 L
228.933 243.274 L
229.884 243.875 L
230.836 244.47 L
231.787 245.06 L
232.738 245.644 L
233.689 246.223 L
234.64 246.796 L
235.591 247.365 L
236.542 247.928 L
237.493 248.487 L
238.444 249.04 L
239.396 249.588 L
240.347 250.132 L
241.298 250.671 L
S
GR
GS
[0.75 0 0 0.75 0 -0.25] CT
0 0.447 0.741 RC
2 LJ
N
241.298 250.671 M
242.249 251.205 L
243.2 251.735 L
244.151 252.26 L
245.102 252.78 L
246.053 253.296 L
247.004 253.808 L
247.956 254.315 L
248.907 254.818 L
249.858 255.316 L
250.809 255.811 L
251.76 256.301 L
252.711 256.787 L
253.662 257.27 L
254.613 257.748 L
255.564 258.222 L
256.516 258.693 L
257.467 259.159 L
258.418 259.622 L
259.369 260.081 L
260.32 260.536 L
261.271 260.988 L
262.222 261.436 L
263.173 261.88 L
264.124 262.321 L
265.076 262.759 L
266.027 263.193 L
266.978 263.623 L
267.929 264.051 L
268.88 264.475 L
269.831 264.895 L
270.782 265.313 L
271.733 265.727 L
272.684 266.138 L
273.636 266.546 L
274.587 266.951 L
275.538 267.352 L
276.489 267.751 L
277.44 268.147 L
278.391 268.539 L
279.342 268.929 L
280.293 269.316 L
281.244 269.7 L
282.196 270.081 L
283.147 270.46 L
284.098 270.835 L
285.049 271.208 L
286 271.578 L
286.951 271.946 L
287.902 272.31 L
S
GR
GS
[0.75 0 0 0.75 0 -0.25] CT
0 0.447 0.741 RC
2 LJ
N
287.902 272.31 M
288.853 272.673 L
289.804 273.032 L
290.756 273.389 L
291.707 273.744 L
292.658 274.096 L
293.609 274.445 L
294.56 274.792 L
295.511 275.137 L
296.462 275.479 L
297.413 275.819 L
298.364 276.156 L
299.316 276.491 L
300.267 276.824 L
301.218 277.155 L
302.169 277.483 L
303.12 277.809 L
304.071 278.133 L
305.022 278.454 L
305.973 278.774 L
306.924 279.091 L
307.876 279.406 L
308.827 279.719 L
309.778 280.03 L
310.729 280.339 L
311.68 280.646 L
312.631 280.95 L
313.582 281.253 L
314.533 281.554 L
315.484 281.853 L
316.436 282.15 L
317.387 282.445 L
318.338 282.738 L
319.289 283.029 L
320.24 283.318 L
321.191 283.606 L
322.142 283.891 L
323.093 284.175 L
324.044 284.457 L
324.996 284.737 L
325.947 285.016 L
326.898 285.292 L
327.849 285.567 L
328.8 285.841 L
329.751 286.112 L
330.702 286.382 L
331.653 286.65 L
332.604 286.917 L
333.556 287.181 L
334.507 287.445 L
S
GR
GS
[0.75 0 0 0.75 0 -0.25] CT
0 0.447 0.741 RC
2 LJ
N
334.507 287.445 M
335.458 287.706 L
336.409 287.966 L
337.36 288.225 L
338.311 288.482 L
339.262 288.737 L
340.213 288.991 L
341.164 289.243 L
342.116 289.494 L
343.067 289.743 L
344.018 289.991 L
344.969 290.237 L
345.92 290.482 L
346.871 290.726 L
347.822 290.968 L
348.773 291.208 L
349.724 291.447 L
350.676 291.685 L
351.627 291.921 L
352.578 292.156 L
353.529 292.39 L
354.48 292.622 L
355.431 292.853 L
356.382 293.083 L
357.333 293.311 L
358.284 293.538 L
359.236 293.764 L
360.187 293.989 L
361.138 294.212 L
362.089 294.434 L
363.04 294.654 L
363.991 294.874 L
364.942 295.092 L
365.893 295.309 L
366.844 295.525 L
367.796 295.74 L
368.747 295.953 L
369.698 296.165 L
370.649 296.376 L
371.6 296.586 L
372.551 296.795 L
373.502 297.003 L
374.453 297.209 L
375.404 297.415 L
376.356 297.619 L
377.307 297.822 L
378.258 298.024 L
379.209 298.225 L
380.16 298.425 L
381.111 298.624 L
S
GR
GS
[0.75 0 0 0.75 0 -0.25] CT
0 0.447 0.741 RC
2 LJ
N
381.111 298.624 M
382.062 298.822 L
383.013 299.019 L
383.964 299.214 L
384.916 299.409 L
385.867 299.603 L
386.818 299.795 L
387.769 299.987 L
388.72 300.178 L
389.671 300.367 L
390.622 300.556 L
391.573 300.743 L
392.524 300.93 L
393.476 301.116 L
394.427 301.301 L
395.378 301.485 L
396.329 301.667 L
397.28 301.849 L
398.231 302.031 L
399.182 302.211 L
400.133 302.39 L
401.084 302.568 L
402.036 302.746 L
402.987 302.922 L
403.938 303.098 L
404.889 303.272 L
405.84 303.446 L
406.791 303.619 L
407.742 303.792 L
408.693 303.963 L
409.644 304.133 L
410.596 304.303 L
411.547 304.472 L
412.498 304.64 L
413.449 304.807 L
414.4 304.973 L
415.351 305.139 L
416.302 305.303 L
417.253 305.467 L
418.204 305.63 L
419.156 305.793 L
420.107 305.954 L
421.058 306.115 L
422.009 306.275 L
422.96 306.434 L
423.911 306.593 L
424.862 306.751 L
425.813 306.908 L
426.764 307.064 L
427.716 307.219 L
S
GR
GS
[0.75 0 0 0.75 0 -0.25] CT
0 0.447 0.741 RC
2 LJ
N
427.716 307.219 M
428.667 307.374 L
429.618 307.528 L
430.569 307.681 L
431.52 307.834 L
432.471 307.986 L
433.422 308.137 L
434.373 308.288 L
435.324 308.437 L
436.276 308.587 L
437.227 308.735 L
438.178 308.883 L
439.129 309.03 L
440.08 309.176 L
441.031 309.322 L
441.982 309.467 L
442.933 309.611 L
443.884 309.755 L
444.836 309.898 L
445.787 310.041 L
446.738 310.182 L
447.689 310.324 L
448.64 310.464 L
449.591 310.604 L
450.542 310.743 L
451.493 310.882 L
452.444 311.02 L
453.396 311.157 L
454.347 311.294 L
455.298 311.43 L
456.249 311.566 L
457.2 311.701 L
458.151 311.836 L
459.102 311.969 L
460.053 312.103 L
461.004 312.235 L
461.956 312.367 L
462.907 312.499 L
463.858 312.63 L
464.809 312.76 L
465.76 312.89 L
466.711 313.019 L
467.662 313.148 L
468.613 313.276 L
469.564 313.404 L
470.516 313.531 L
471.467 313.657 L
472.418 313.783 L
473.369 313.909 L
474.32 314.034 L
S
GR
GS
[0.75 0 0 0.75 0 -0.25] CT
0 0.447 0.741 RC
2 LJ
N
474.32 314.034 M
475.271 314.158 L
476.222 314.282 L
477.173 314.405 L
478.124 314.528 L
479.076 314.651 L
480.027 314.772 L
480.978 314.894 L
481.929 315.015 L
482.88 315.135 L
483.831 315.255 L
484.782 315.374 L
485.733 315.493 L
486.684 315.611 L
487.636 315.729 L
488.587 315.846 L
489.538 315.963 L
490.489 316.08 L
491.44 316.195 L
492.391 316.311 L
493.342 316.426 L
494.293 316.54 L
495.244 316.655 L
496.196 316.768 L
497.147 316.881 L
498.098 316.994 L
499.049 317.106 L
500 317.218 L
S
GR
GS
[0.75 0 0 0.75 0 -0.25] CT
0.851 0.325 0.098 RC
2 LJ
N
96.476 30.966 M
96.729 34.526 L
97.68 46.742 L
98.631 57.929 L
99.582 68.196 L
100.533 77.637 L
101.484 86.335 L
102.436 94.363 L
103.387 101.786 L
104.338 108.662 L
105.289 115.042 L
106.24 120.971 L
107.191 126.491 L
108.142 131.638 L
109.093 136.445 L
110.044 140.942 L
110.996 145.154 L
111.947 149.105 L
112.898 152.818 L
113.849 156.311 L
114.8 159.603 L
115.751 162.709 L
116.702 165.644 L
117.653 168.421 L
118.604 171.051 L
119.556 173.547 L
120.507 175.919 L
121.458 178.174 L
122.409 180.322 L
123.36 182.37 L
124.311 184.325 L
125.262 186.194 L
126.213 187.983 L
127.164 189.697 L
128.116 191.342 L
129.067 192.92 L
130.018 194.438 L
130.969 195.899 L
131.92 197.307 L
132.871 198.664 L
133.822 199.975 L
134.773 201.242 L
135.724 202.467 L
136.676 203.653 L
137.627 204.802 L
138.578 205.918 L
139.529 207 L
140.48 208.052 L
141.431 209.075 L
142.382 210.071 L
S
GR
GS
[0.75 0 0 0.75 0 -0.25] CT
0.851 0.325 0.098 RC
2 LJ
N
142.382 210.071 M
143.333 211.04 L
144.284 211.985 L
145.236 212.907 L
146.187 213.808 L
147.138 214.687 L
148.089 215.546 L
149.04 216.387 L
149.991 217.209 L
150.942 218.015 L
151.893 218.804 L
152.844 219.578 L
153.796 220.338 L
154.747 221.083 L
155.698 221.815 L
156.649 222.533 L
157.6 223.24 L
158.551 223.935 L
159.502 224.618 L
160.453 225.291 L
161.404 225.953 L
162.356 226.606 L
163.307 227.249 L
164.258 227.882 L
165.209 228.507 L
166.16 229.123 L
167.111 229.731 L
168.062 230.331 L
169.013 230.923 L
169.964 231.508 L
170.916 232.086 L
171.867 232.657 L
172.818 233.221 L
173.769 233.779 L
174.72 234.33 L
175.671 234.875 L
176.622 235.415 L
177.573 235.948 L
178.524 236.476 L
179.476 236.999 L
180.427 237.516 L
181.378 238.029 L
182.329 238.536 L
183.28 239.038 L
184.231 239.536 L
185.182 240.029 L
186.133 240.517 L
187.084 241.002 L
188.036 241.481 L
188.987 241.957 L
S
GR
GS
[0.75 0 0 0.75 0 -0.25] CT
0.851 0.325 0.098 RC
2 LJ
N
188.987 241.957 M
189.938 242.428 L
190.889 242.896 L
191.84 243.359 L
192.791 243.819 L
193.742 244.275 L
194.693 244.727 L
195.644 245.176 L
196.596 245.621 L
197.547 246.062 L
198.498 246.501 L
199.449 246.935 L
200.4 247.367 L
201.351 247.795 L
202.302 248.22 L
203.253 248.642 L
204.204 249.061 L
205.156 249.477 L
206.107 249.89 L
207.058 250.299 L
208.009 250.706 L
208.96 251.111 L
209.911 251.512 L
210.862 251.911 L
211.813 252.306 L
212.764 252.7 L
213.716 253.09 L
214.667 253.478 L
215.618 253.864 L
216.569 254.246 L
217.52 254.627 L
218.471 255.005 L
219.422 255.38 L
220.373 255.753 L
221.324 256.124 L
222.276 256.492 L
223.227 256.858 L
224.178 257.221 L
225.129 257.583 L
226.08 257.942 L
227.031 258.299 L
227.982 258.654 L
228.933 259.006 L
229.884 259.357 L
230.836 259.705 L
231.787 260.051 L
232.738 260.395 L
233.689 260.737 L
234.64 261.077 L
235.591 261.415 L
S
GR
GS
[0.75 0 0 0.75 0 -0.25] CT
0.851 0.325 0.098 RC
2 LJ
N
235.591 261.415 M
236.542 261.751 L
237.493 262.085 L
238.444 262.417 L
239.396 262.748 L
240.347 263.076 L
241.298 263.402 L
242.249 263.727 L
243.2 264.049 L
244.151 264.37 L
245.102 264.689 L
246.053 265.006 L
247.004 265.322 L
247.956 265.635 L
248.907 265.947 L
249.858 266.257 L
250.809 266.565 L
251.76 266.872 L
252.711 267.177 L
253.662 267.48 L
254.613 267.782 L
255.564 268.082 L
256.516 268.38 L
257.467 268.677 L
258.418 268.972 L
259.369 269.265 L
260.32 269.557 L
261.271 269.848 L
262.222 270.136 L
263.173 270.424 L
264.124 270.709 L
265.076 270.994 L
266.027 271.276 L
266.978 271.557 L
267.929 271.837 L
268.88 272.115 L
269.831 272.392 L
270.782 272.667 L
271.733 272.941 L
272.684 273.214 L
273.636 273.485 L
274.587 273.754 L
275.538 274.023 L
276.489 274.289 L
277.44 274.555 L
278.391 274.819 L
279.342 275.082 L
280.293 275.343 L
281.244 275.603 L
282.196 275.862 L
S
GR
GS
[0.75 0 0 0.75 0 -0.25] CT
0.851 0.325 0.098 RC
2 LJ
N
282.196 275.862 M
283.147 276.12 L
284.098 276.376 L
285.049 276.631 L
286 276.884 L
286.951 277.137 L
287.902 277.388 L
288.853 277.638 L
289.804 277.886 L
290.756 278.133 L
291.707 278.38 L
292.658 278.624 L
293.609 278.868 L
294.56 279.111 L
295.511 279.352 L
296.462 279.592 L
297.413 279.831 L
298.364 280.069 L
299.316 280.305 L
300.267 280.541 L
301.218 280.775 L
302.169 281.008 L
303.12 281.24 L
304.071 281.471 L
305.022 281.701 L
305.973 281.93 L
306.924 282.158 L
307.876 282.384 L
308.827 282.61 L
309.778 282.834 L
310.729 283.057 L
311.68 283.28 L
312.631 283.501 L
313.582 283.721 L
314.533 283.94 L
315.484 284.158 L
316.436 284.376 L
317.387 284.592 L
318.338 284.807 L
319.289 285.021 L
320.24 285.234 L
321.191 285.446 L
322.142 285.657 L
323.093 285.867 L
324.044 286.077 L
324.996 286.285 L
325.947 286.492 L
326.898 286.698 L
327.849 286.904 L
328.8 287.108 L
S
GR
GS
[0.75 0 0 0.75 0 -0.25] CT
0.851 0.325 0.098 RC
2 LJ
N
328.8 287.108 M
329.751 287.312 L
330.702 287.514 L
331.653 287.716 L
332.604 287.917 L
333.556 288.116 L
334.507 288.315 L
335.458 288.513 L
336.409 288.711 L
337.36 288.907 L
338.311 289.102 L
339.262 289.297 L
340.213 289.491 L
341.164 289.683 L
342.116 289.875 L
343.067 290.066 L
344.018 290.257 L
344.969 290.446 L
345.92 290.635 L
346.871 290.822 L
347.822 291.009 L
348.773 291.195 L
349.724 291.381 L
350.676 291.565 L
351.627 291.749 L
352.578 291.932 L
353.529 292.114 L
354.48 292.295 L
355.431 292.476 L
356.382 292.656 L
357.333 292.835 L
358.284 293.013 L
359.236 293.19 L
360.187 293.367 L
361.138 293.543 L
362.089 293.718 L
363.04 293.892 L
363.991 294.066 L
364.942 294.239 L
365.893 294.411 L
366.844 294.583 L
367.796 294.754 L
368.747 294.924 L
369.698 295.093 L
370.649 295.262 L
371.6 295.43 L
372.551 295.597 L
373.502 295.763 L
374.453 295.929 L
375.404 296.094 L
S
GR
GS
[0.75 0 0 0.75 0 -0.25] CT
0.851 0.325 0.098 RC
2 LJ
N
375.404 296.094 M
376.356 296.259 L
377.307 296.423 L
378.258 296.586 L
379.209 296.748 L
380.16 296.91 L
381.111 297.071 L
382.062 297.232 L
383.013 297.392 L
383.964 297.551 L
384.916 297.709 L
385.867 297.867 L
386.818 298.024 L
387.769 298.181 L
388.72 298.337 L
389.671 298.492 L
390.622 298.647 L
391.573 298.801 L
392.524 298.954 L
393.476 299.107 L
394.427 299.259 L
395.378 299.411 L
396.329 299.562 L
397.28 299.712 L
398.231 299.862 L
399.182 300.012 L
400.133 300.16 L
401.084 300.308 L
402.036 300.456 L
402.987 300.603 L
403.938 300.749 L
404.889 300.895 L
405.84 301.04 L
406.791 301.184 L
407.742 301.328 L
408.693 301.472 L
409.644 301.615 L
410.596 301.757 L
411.547 301.899 L
412.498 302.04 L
413.449 302.181 L
414.4 302.321 L
415.351 302.461 L
416.302 302.6 L
417.253 302.738 L
418.204 302.876 L
419.156 303.014 L
420.107 303.151 L
421.058 303.287 L
422.009 303.423 L
S
GR
GS
[0.75 0 0 0.75 0 -0.25] CT
0.851 0.325 0.098 RC
2 LJ
N
422.009 303.423 M
422.96 303.559 L
423.911 303.694 L
424.862 303.828 L
425.813 303.962 L
426.764 304.095 L
427.716 304.228 L
428.667 304.361 L
429.618 304.492 L
430.569 304.624 L
431.52 304.755 L
432.471 304.885 L
433.422 305.015 L
434.373 305.145 L
435.324 305.274 L
436.276 305.402 L
437.227 305.53 L
438.178 305.658 L
439.129 305.785 L
440.08 305.911 L
441.031 306.037 L
441.982 306.163 L
442.933 306.288 L
443.884 306.413 L
444.836 306.537 L
445.787 306.661 L
446.738 306.785 L
447.689 306.908 L
448.64 307.03 L
449.591 307.152 L
450.542 307.274 L
451.493 307.395 L
452.444 307.516 L
453.396 307.636 L
454.347 307.756 L
455.298 307.875 L
456.249 307.994 L
457.2 308.113 L
458.151 308.231 L
459.102 308.349 L
460.053 308.466 L
461.004 308.583 L
461.956 308.7 L
462.907 308.816 L
463.858 308.932 L
464.809 309.047 L
465.76 309.162 L
466.711 309.276 L
467.662 309.39 L
468.613 309.504 L
S
GR
GS
[0.75 0 0 0.75 0 -0.25] CT
0.851 0.325 0.098 RC
2 LJ
N
468.613 309.504 M
469.564 309.617 L
470.516 309.73 L
471.467 309.843 L
472.418 309.955 L
473.369 310.066 L
474.32 310.178 L
475.271 310.289 L
476.222 310.399 L
477.173 310.509 L
478.124 310.619 L
479.076 310.729 L
480.027 310.838 L
480.978 310.946 L
481.929 311.055 L
482.88 311.163 L
483.831 311.27 L
484.782 311.377 L
485.733 311.484 L
486.684 311.591 L
487.636 311.697 L
488.587 311.802 L
489.538 311.908 L
490.489 312.013 L
491.44 312.117 L
492.391 312.222 L
493.342 312.326 L
494.293 312.429 L
495.244 312.533 L
496.196 312.636 L
497.147 312.738 L
498.098 312.84 L
499.049 312.942 L
500 313.044 L
S
GR
GS
[0.75 0 0 0.75 0 -0.25] CT
0.929 0.694 0.125 RC
2 LJ
N
87.281 30.966 M
88.169 54.209 L
89.12 76.175 L
90.071 95.599 L
91.022 112.822 L
91.973 128.129 L
92.924 141.766 L
93.876 153.941 L
94.827 164.831 L
95.778 174.592 L
96.729 183.355 L
97.68 191.236 L
98.631 198.333 L
99.582 204.736 L
100.533 210.519 L
101.484 215.75 L
102.436 220.487 L
103.387 224.783 L
104.338 228.683 L
105.289 232.227 L
106.24 235.453 L
107.191 238.39 L
108.142 241.069 L
109.093 243.514 L
110.044 245.748 L
110.996 247.791 L
111.947 249.662 L
112.898 251.377 L
113.849 252.95 L
114.8 254.395 L
115.751 255.724 L
116.702 256.947 L
117.653 258.073 L
118.604 259.113 L
119.556 260.073 L
120.507 260.96 L
121.458 261.782 L
122.409 262.544 L
123.36 263.252 L
124.311 263.909 L
125.262 264.522 L
126.213 265.093 L
127.164 265.627 L
128.116 266.126 L
129.067 266.595 L
130.018 267.034 L
130.969 267.448 L
131.92 267.838 L
132.871 268.207 L
133.822 268.556 L
S
GR
GS
[0.75 0 0 0.75 0 -0.25] CT
0.929 0.694 0.125 RC
2 LJ
N
133.822 268.556 M
134.773 268.888 L
135.724 269.203 L
136.676 269.503 L
137.627 269.79 L
138.578 270.064 L
139.529 270.328 L
140.48 270.582 L
141.431 270.826 L
142.382 271.063 L
143.333 271.291 L
144.284 271.514 L
145.236 271.73 L
146.187 271.94 L
147.138 272.146 L
148.089 272.348 L
149.04 272.545 L
149.991 272.739 L
150.942 272.93 L
151.893 273.118 L
152.844 273.304 L
153.796 273.488 L
154.747 273.669 L
155.698 273.849 L
156.649 274.028 L
157.6 274.206 L
158.551 274.382 L
159.502 274.558 L
160.453 274.733 L
161.404 274.907 L
162.356 275.081 L
163.307 275.255 L
164.258 275.428 L
165.209 275.601 L
166.16 275.775 L
167.111 275.948 L
168.062 276.121 L
169.013 276.295 L
169.964 276.469 L
170.916 276.642 L
171.867 276.817 L
172.818 276.991 L
173.769 277.166 L
174.72 277.341 L
175.671 277.517 L
176.622 277.693 L
177.573 277.869 L
178.524 278.046 L
179.476 278.223 L
180.427 278.401 L
S
GR
GS
[0.75 0 0 0.75 0 -0.25] CT
0.929 0.694 0.125 RC
2 LJ
N
180.427 278.401 M
181.378 278.579 L
182.329 278.757 L
183.28 278.936 L
184.231 279.115 L
185.182 279.295 L
186.133 279.475 L
187.084 279.656 L
188.036 279.837 L
188.987 280.018 L
189.938 280.2 L
190.889 280.382 L
191.84 280.564 L
192.791 280.747 L
193.742 280.93 L
194.693 281.113 L
195.644 281.297 L
196.596 281.481 L
197.547 281.665 L
198.498 281.849 L
199.449 282.034 L
200.4 282.219 L
201.351 282.404 L
202.302 282.589 L
203.253 282.775 L
204.204 282.96 L
205.156 283.146 L
206.107 283.332 L
207.058 283.518 L
208.009 283.704 L
208.96 283.89 L
209.911 284.076 L
210.862 284.262 L
211.813 284.448 L
212.764 284.635 L
213.716 284.821 L
214.667 285.007 L
215.618 285.194 L
216.569 285.38 L
217.52 285.566 L
218.471 285.752 L
219.422 285.938 L
220.373 286.124 L
221.324 286.31 L
222.276 286.495 L
223.227 286.681 L
224.178 286.866 L
225.129 287.052 L
226.08 287.237 L
227.031 287.422 L
S
GR
GS
[0.75 0 0 0.75 0 -0.25] CT
0.929 0.694 0.125 RC
2 LJ
N
227.031 287.422 M
227.982 287.606 L
228.933 287.791 L
229.884 287.975 L
230.836 288.159 L
231.787 288.343 L
232.738 288.527 L
233.689 288.71 L
234.64 288.894 L
235.591 289.076 L
236.542 289.259 L
237.493 289.441 L
238.444 289.623 L
239.396 289.805 L
240.347 289.987 L
241.298 290.168 L
242.249 290.349 L
243.2 290.529 L
244.151 290.709 L
245.102 290.889 L
246.053 291.069 L
247.004 291.248 L
247.956 291.427 L
248.907 291.605 L
249.858 291.783 L
250.809 291.961 L
251.76 292.138 L
252.711 292.315 L
253.662 292.492 L
254.613 292.668 L
255.564 292.843 L
256.516 293.019 L
257.467 293.194 L
258.418 293.368 L
259.369 293.542 L
260.32 293.716 L
261.271 293.889 L
262.222 294.062 L
263.173 294.234 L
264.124 294.406 L
265.076 294.578 L
266.027 294.749 L
266.978 294.92 L
267.929 295.09 L
268.88 295.259 L
269.831 295.429 L
270.782 295.598 L
271.733 295.766 L
272.684 295.934 L
273.636 296.101 L
S
GR
GS
[0.75 0 0 0.75 0 -0.25] CT
0.929 0.694 0.125 RC
2 LJ
N
273.636 296.101 M
274.587 296.268 L
275.538 296.435 L
276.489 296.601 L
277.44 296.766 L
278.391 296.932 L
279.342 297.096 L
280.293 297.26 L
281.244 297.424 L
282.196 297.587 L
283.147 297.75 L
284.098 297.912 L
285.049 298.074 L
286 298.235 L
286.951 298.396 L
287.902 298.557 L
288.853 298.716 L
289.804 298.876 L
290.756 299.035 L
291.707 299.193 L
292.658 299.351 L
293.609 299.508 L
294.56 299.665 L
295.511 299.822 L
296.462 299.978 L
297.413 300.133 L
298.364 300.288 L
299.316 300.443 L
300.267 300.597 L
301.218 300.751 L
302.169 300.904 L
303.12 301.056 L
304.071 301.208 L
305.022 301.36 L
305.973 301.511 L
306.924 301.662 L
307.876 301.812 L
308.827 301.962 L
309.778 302.111 L
310.729 302.26 L
311.68 302.408 L
312.631 302.556 L
313.582 302.703 L
314.533 302.85 L
315.484 302.996 L
316.436 303.142 L
317.387 303.287 L
318.338 303.432 L
319.289 303.577 L
320.24 303.72 L
S
GR
GS
[0.75 0 0 0.75 0 -0.25] CT
0.929 0.694 0.125 RC
2 LJ
N
320.24 303.72 M
321.191 303.864 L
322.142 304.007 L
323.093 304.149 L
324.044 304.291 L
324.996 304.433 L
325.947 304.574 L
326.898 304.715 L
327.849 304.855 L
328.8 304.995 L
329.751 305.134 L
330.702 305.273 L
331.653 305.411 L
332.604 305.549 L
333.556 305.686 L
334.507 305.823 L
335.458 305.96 L
336.409 306.096 L
337.36 306.231 L
338.311 306.366 L
339.262 306.501 L
340.213 306.635 L
341.164 306.769 L
342.116 306.902 L
343.067 307.035 L
344.018 307.168 L
344.969 307.3 L
345.92 307.431 L
346.871 307.562 L
347.822 307.693 L
348.773 307.823 L
349.724 307.953 L
350.676 308.082 L
351.627 308.211 L
352.578 308.339 L
353.529 308.467 L
354.48 308.595 L
355.431 308.722 L
356.382 308.849 L
357.333 308.975 L
358.284 309.101 L
359.236 309.226 L
360.187 309.351 L
361.138 309.476 L
362.089 309.6 L
363.04 309.724 L
363.991 309.847 L
364.942 309.97 L
365.893 310.093 L
366.844 310.215 L
S
GR
GS
[0.75 0 0 0.75 0 -0.25] CT
0.929 0.694 0.125 RC
2 LJ
N
366.844 310.215 M
367.796 310.336 L
368.747 310.458 L
369.698 310.579 L
370.649 310.699 L
371.6 310.819 L
372.551 310.939 L
373.502 311.058 L
374.453 311.177 L
375.404 311.295 L
376.356 311.413 L
377.307 311.531 L
378.258 311.648 L
379.209 311.765 L
380.16 311.882 L
381.111 311.998 L
382.062 312.113 L
383.013 312.229 L
383.964 312.344 L
384.916 312.458 L
385.867 312.572 L
386.818 312.686 L
387.769 312.799 L
388.72 312.912 L
389.671 313.025 L
390.622 313.137 L
391.573 313.249 L
392.524 313.361 L
393.476 313.472 L
394.427 313.582 L
395.378 313.693 L
396.329 313.803 L
397.28 313.913 L
398.231 314.022 L
399.182 314.131 L
400.133 314.239 L
401.084 314.347 L
402.036 314.455 L
402.987 314.563 L
403.938 314.67 L
404.889 314.777 L
405.84 314.883 L
406.791 314.989 L
407.742 315.095 L
408.693 315.2 L
409.644 315.305 L
410.596 315.41 L
411.547 315.514 L
412.498 315.618 L
413.449 315.722 L
S
GR
GS
[0.75 0 0 0.75 0 -0.25] CT
0.929 0.694 0.125 RC
2 LJ
N
413.449 315.722 M
414.4 315.825 L
415.351 315.928 L
416.302 316.031 L
417.253 316.133 L
418.204 316.235 L
419.156 316.337 L
420.107 316.438 L
421.058 316.539 L
422.009 316.64 L
422.96 316.74 L
423.911 316.84 L
424.862 316.94 L
425.813 317.039 L
426.764 317.138 L
427.716 317.237 L
428.667 317.335 L
429.618 317.433 L
430.569 317.531 L
431.52 317.628 L
432.471 317.725 L
433.422 317.822 L
434.373 317.918 L
435.324 318.015 L
436.276 318.111 L
437.227 318.206 L
438.178 318.301 L
439.129 318.396 L
440.08 318.491 L
441.031 318.585 L
441.982 318.679 L
442.933 318.773 L
443.884 318.866 L
444.836 318.959 L
445.787 319.052 L
446.738 319.145 L
447.689 319.237 L
448.64 319.329 L
449.591 319.421 L
450.542 319.512 L
451.493 319.603 L
452.444 319.694 L
453.396 319.784 L
454.347 319.875 L
455.298 319.964 L
456.249 320.054 L
457.2 320.143 L
458.151 320.233 L
459.102 320.321 L
460.053 320.41 L
S
GR
GS
[0.75 0 0 0.75 0 -0.25] CT
0.929 0.694 0.125 RC
2 LJ
N
460.053 320.41 M
461.004 320.498 L
461.956 320.586 L
462.907 320.674 L
463.858 320.761 L
464.809 320.848 L
465.76 320.935 L
466.711 321.022 L
467.662 321.108 L
468.613 321.194 L
469.564 321.28 L
470.516 321.365 L
471.467 321.451 L
472.418 321.536 L
473.369 321.62 L
474.32 321.705 L
475.271 321.789 L
476.222 321.873 L
477.173 321.957 L
478.124 322.04 L
479.076 322.123 L
480.027 322.206 L
480.978 322.289 L
481.929 322.371 L
482.88 322.454 L
483.831 322.535 L
484.782 322.617 L
485.733 322.699 L
486.684 322.78 L
487.636 322.861 L
488.587 322.941 L
489.538 323.022 L
490.489 323.102 L
491.44 323.182 L
492.391 323.262 L
493.342 323.341 L
494.293 323.42 L
495.244 323.499 L
496.196 323.578 L
497.147 323.656 L
498.098 323.735 L
499.049 323.813 L
500 323.891 L
S
GR
GS
[0.75 0 0 0.75 0 -0.25] CT
0.494 0.184 0.557 RC
2 LJ
N
85.094 30.966 M
85.316 38.804 L
86.267 68.016 L
87.218 93.485 L
88.169 115.759 L
89.12 135.295 L
90.071 152.474 L
91.022 167.615 L
91.973 180.988 L
92.924 192.823 L
93.876 203.314 L
94.827 212.629 L
95.778 220.911 L
96.729 228.285 L
97.68 234.856 L
98.631 240.72 L
99.582 245.955 L
100.533 250.634 L
101.484 254.819 L
102.436 258.563 L
103.387 261.914 L
104.338 264.916 L
105.289 267.604 L
106.24 270.013 L
107.191 272.171 L
108.142 274.104 L
109.093 275.836 L
110.044 277.388 L
110.996 278.776 L
111.947 280.019 L
112.898 281.131 L
113.849 282.124 L
114.8 283.012 L
115.751 283.804 L
116.702 284.51 L
117.653 285.138 L
118.604 285.697 L
119.556 286.193 L
120.507 286.633 L
121.458 287.022 L
122.409 287.366 L
123.36 287.669 L
124.311 287.935 L
125.262 288.168 L
126.213 288.372 L
127.164 288.549 L
128.116 288.703 L
129.067 288.836 L
130.018 288.95 L
130.969 289.048 L
S
GR
GS
[0.75 0 0 0.75 0 -0.25] CT
0.494 0.184 0.557 RC
2 LJ
N
130.969 289.048 M
131.92 289.131 L
132.871 289.201 L
133.822 289.26 L
134.773 289.309 L
135.724 289.349 L
136.676 289.382 L
137.627 289.409 L
138.578 289.43 L
139.529 289.446 L
140.48 289.459 L
141.431 289.468 L
142.382 289.475 L
143.333 289.48 L
144.284 289.484 L
145.236 289.487 L
146.187 289.49 L
147.138 289.492 L
148.089 289.495 L
149.04 289.499 L
149.991 289.503 L
150.942 289.508 L
151.893 289.515 L
152.844 289.523 L
153.796 289.533 L
154.747 289.544 L
155.698 289.558 L
156.649 289.574 L
157.6 289.591 L
158.551 289.611 L
159.502 289.634 L
160.453 289.659 L
161.404 289.686 L
162.356 289.715 L
163.307 289.747 L
164.258 289.782 L
165.209 289.819 L
166.16 289.858 L
167.111 289.9 L
168.062 289.945 L
169.013 289.992 L
169.964 290.041 L
170.916 290.093 L
171.867 290.148 L
172.818 290.205 L
173.769 290.264 L
174.72 290.326 L
175.671 290.39 L
176.622 290.456 L
177.573 290.524 L
S
GR
GS
[0.75 0 0 0.75 0 -0.25] CT
0.494 0.184 0.557 RC
2 LJ
N
177.573 290.524 M
178.524 290.595 L
179.476 290.668 L
180.427 290.743 L
181.378 290.82 L
182.329 290.899 L
183.28 290.981 L
184.231 291.064 L
185.182 291.149 L
186.133 291.236 L
187.084 291.325 L
188.036 291.416 L
188.987 291.508 L
189.938 291.602 L
190.889 291.698 L
191.84 291.796 L
192.791 291.895 L
193.742 291.995 L
194.693 292.098 L
195.644 292.201 L
196.596 292.306 L
197.547 292.413 L
198.498 292.521 L
199.449 292.63 L
200.4 292.74 L
201.351 292.852 L
202.302 292.965 L
203.253 293.079 L
204.204 293.194 L
205.156 293.31 L
206.107 293.427 L
207.058 293.546 L
208.009 293.665 L
208.96 293.785 L
209.911 293.907 L
210.862 294.029 L
211.813 294.152 L
212.764 294.276 L
213.716 294.4 L
214.667 294.526 L
215.618 294.652 L
216.569 294.778 L
217.52 294.906 L
218.471 295.034 L
219.422 295.163 L
220.373 295.292 L
221.324 295.422 L
222.276 295.553 L
223.227 295.684 L
224.178 295.816 L
S
GR
GS
[0.75 0 0 0.75 0 -0.25] CT
0.494 0.184 0.557 RC
2 LJ
N
224.178 295.816 M
225.129 295.948 L
226.08 296.08 L
227.031 296.213 L
227.982 296.347 L
228.933 296.481 L
229.884 296.615 L
230.836 296.749 L
231.787 296.884 L
232.738 297.02 L
233.689 297.155 L
234.64 297.291 L
235.591 297.427 L
236.542 297.563 L
237.493 297.7 L
238.444 297.837 L
239.396 297.974 L
240.347 298.111 L
241.298 298.248 L
242.249 298.386 L
243.2 298.523 L
244.151 298.661 L
245.102 298.799 L
246.053 298.937 L
247.004 299.075 L
247.956 299.213 L
248.907 299.351 L
249.858 299.489 L
250.809 299.627 L
251.76 299.766 L
252.711 299.904 L
253.662 300.042 L
254.613 300.18 L
255.564 300.319 L
256.516 300.457 L
257.467 300.595 L
258.418 300.733 L
259.369 300.871 L
260.32 301.009 L
261.271 301.147 L
262.222 301.285 L
263.173 301.423 L
264.124 301.56 L
265.076 301.698 L
266.027 301.835 L
266.978 301.972 L
267.929 302.109 L
268.88 302.246 L
269.831 302.383 L
270.782 302.52 L
S
GR
GS
[0.75 0 0 0.75 0 -0.25] CT
0.494 0.184 0.557 RC
2 LJ
N
270.782 302.52 M
271.733 302.656 L
272.684 302.793 L
273.636 302.929 L
274.587 303.065 L
275.538 303.201 L
276.489 303.336 L
277.44 303.472 L
278.391 303.607 L
279.342 303.742 L
280.293 303.877 L
281.244 304.011 L
282.196 304.146 L
283.147 304.28 L
284.098 304.414 L
285.049 304.548 L
286 304.681 L
286.951 304.814 L
287.902 304.947 L
288.853 305.08 L
289.804 305.212 L
290.756 305.344 L
291.707 305.476 L
292.658 305.608 L
293.609 305.74 L
294.56 305.871 L
295.511 306.002 L
296.462 306.132 L
297.413 306.262 L
298.364 306.392 L
299.316 306.522 L
300.267 306.652 L
301.218 306.781 L
302.169 306.91 L
303.12 307.038 L
304.071 307.167 L
305.022 307.295 L
305.973 307.422 L
306.924 307.55 L
307.876 307.677 L
308.827 307.804 L
309.778 307.93 L
310.729 308.056 L
311.68 308.182 L
312.631 308.308 L
313.582 308.433 L
314.533 308.558 L
315.484 308.683 L
316.436 308.807 L
317.387 308.931 L
S
GR
GS
[0.75 0 0 0.75 0 -0.25] CT
0.494 0.184 0.557 RC
2 LJ
N
317.387 308.931 M
318.338 309.055 L
319.289 309.178 L
320.24 309.301 L
321.191 309.424 L
322.142 309.546 L
323.093 309.669 L
324.044 309.79 L
324.996 309.912 L
325.947 310.033 L
326.898 310.154 L
327.849 310.274 L
328.8 310.394 L
329.751 310.514 L
330.702 310.634 L
331.653 310.753 L
332.604 310.872 L
333.556 310.99 L
334.507 311.109 L
335.458 311.226 L
336.409 311.344 L
337.36 311.461 L
338.311 311.578 L
339.262 311.695 L
340.213 311.811 L
341.164 311.927 L
342.116 312.043 L
343.067 312.158 L
344.018 312.273 L
344.969 312.387 L
345.92 312.502 L
346.871 312.616 L
347.822 312.729 L
348.773 312.843 L
349.724 312.956 L
350.676 313.068 L
351.627 313.181 L
352.578 313.293 L
353.529 313.404 L
354.48 313.516 L
355.431 313.627 L
356.382 313.737 L
357.333 313.848 L
358.284 313.958 L
359.236 314.068 L
360.187 314.177 L
361.138 314.286 L
362.089 314.395 L
363.04 314.503 L
363.991 314.611 L
S
GR
GS
[0.75 0 0 0.75 0 -0.25] CT
0.494 0.184 0.557 RC
2 LJ
N
363.991 314.611 M
364.942 314.719 L
365.893 314.827 L
366.844 314.934 L
367.796 315.041 L
368.747 315.147 L
369.698 315.254 L
370.649 315.359 L
371.6 315.465 L
372.551 315.57 L
373.502 315.675 L
374.453 315.78 L
375.404 315.884 L
376.356 315.988 L
377.307 316.092 L
378.258 316.195 L
379.209 316.298 L
380.16 316.401 L
381.111 316.504 L
382.062 316.606 L
383.013 316.708 L
383.964 316.809 L
384.916 316.911 L
385.867 317.011 L
386.818 317.112 L
387.769 317.212 L
388.72 317.312 L
389.671 317.412 L
390.622 317.512 L
391.573 317.611 L
392.524 317.71 L
393.476 317.808 L
394.427 317.906 L
395.378 318.004 L
396.329 318.102 L
397.28 318.199 L
398.231 318.296 L
399.182 318.393 L
400.133 318.49 L
401.084 318.586 L
402.036 318.682 L
402.987 318.777 L
403.938 318.872 L
404.889 318.967 L
405.84 319.062 L
406.791 319.157 L
407.742 319.251 L
408.693 319.345 L
409.644 319.438 L
410.596 319.532 L
S
GR
GS
[0.75 0 0 0.75 0 -0.25] CT
0.494 0.184 0.557 RC
2 LJ
N
410.596 319.532 M
411.547 319.625 L
412.498 319.717 L
413.449 319.81 L
414.4 319.902 L
415.351 319.994 L
416.302 320.086 L
417.253 320.177 L
418.204 320.268 L
419.156 320.359 L
420.107 320.449 L
421.058 320.539 L
422.009 320.629 L
422.96 320.719 L
423.911 320.809 L
424.862 320.898 L
425.813 320.987 L
426.764 321.075 L
427.716 321.164 L
428.667 321.252 L
429.618 321.34 L
430.569 321.427 L
431.52 321.514 L
432.471 321.601 L
433.422 321.688 L
434.373 321.775 L
435.324 321.861 L
436.276 321.947 L
437.227 322.033 L
438.178 322.118 L
439.129 322.203 L
440.08 322.288 L
441.031 322.373 L
441.982 322.458 L
442.933 322.542 L
443.884 322.626 L
444.836 322.709 L
445.787 322.793 L
446.738 322.876 L
447.689 322.959 L
448.64 323.042 L
449.591 323.124 L
450.542 323.207 L
451.493 323.288 L
452.444 323.37 L
453.396 323.452 L
454.347 323.533 L
455.298 323.614 L
456.249 323.695 L
457.2 323.775 L
S
GR
GS
[0.75 0 0 0.75 0 -0.25] CT
0.494 0.184 0.557 RC
2 LJ
N
457.2 323.775 M
458.151 323.856 L
459.102 323.936 L
460.053 324.015 L
461.004 324.095 L
461.956 324.174 L
462.907 324.253 L
463.858 324.332 L
464.809 324.411 L
465.76 324.489 L
466.711 324.568 L
467.662 324.646 L
468.613 324.723 L
469.564 324.801 L
470.516 324.878 L
471.467 324.955 L
472.418 325.032 L
473.369 325.108 L
474.32 325.185 L
475.271 325.261 L
476.222 325.337 L
477.173 325.413 L
478.124 325.488 L
479.076 325.563 L
480.027 325.638 L
480.978 325.713 L
481.929 325.788 L
482.88 325.862 L
483.831 325.936 L
484.782 326.01 L
485.733 326.084 L
486.684 326.158 L
487.636 326.231 L
488.587 326.304 L
489.538 326.377 L
490.489 326.45 L
491.44 326.522 L
492.391 326.594 L
493.342 326.666 L
494.293 326.738 L
495.244 326.81 L
496.196 326.881 L
497.147 326.953 L
498.098 327.024 L
499.049 327.094 L
500 327.165 L
S
GR
GS
[0.75 0 0 0.75 0 -0.25] CT
0.467 0.675 0.188 RC
2 LJ
N
80.083 30.966 M
80.56 59.184 L
81.511 106.287 L
82.462 145.904 L
83.413 179.37 L
84.364 207.744 L
85.316 231.871 L
86.267 252.438 L
87.218 270.002 L
88.169 285.021 L
89.12 297.875 L
90.071 308.879 L
91.022 318.297 L
91.973 326.351 L
92.924 333.23 L
93.876 339.092 L
94.827 344.073 L
95.778 348.29 L
96.729 351.841 L
97.68 354.814 L
98.631 357.282 L
99.582 359.309 L
100.533 360.951 L
101.484 362.258 L
102.436 363.27 L
103.387 364.025 L
104.338 364.556 L
105.289 364.891 L
106.24 365.054 L
107.191 365.068 L
108.142 364.952 L
109.093 364.724 L
110.044 364.397 L
110.996 363.985 L
111.947 363.501 L
112.898 362.954 L
113.849 362.353 L
114.8 361.707 L
115.751 361.024 L
116.702 360.308 L
117.653 359.567 L
118.604 358.804 L
119.556 358.025 L
120.507 357.234 L
121.458 356.433 L
122.409 355.626 L
123.36 354.816 L
124.311 354.005 L
125.262 353.195 L
126.213 352.388 L
S
GR
GS
[0.75 0 0 0.75 0 -0.25] CT
0.467 0.675 0.188 RC
2 LJ
N
126.213 352.388 M
127.164 351.585 L
128.116 350.789 L
129.067 349.999 L
130.018 349.219 L
130.969 348.447 L
131.92 347.685 L
132.871 346.935 L
133.822 346.195 L
134.773 345.468 L
135.724 344.753 L
136.676 344.05 L
137.627 343.36 L
138.578 342.684 L
139.529 342.02 L
140.48 341.37 L
141.431 340.733 L
142.382 340.11 L
143.333 339.5 L
144.284 338.904 L
145.236 338.321 L
146.187 337.751 L
147.138 337.195 L
148.089 336.651 L
149.04 336.121 L
149.991 335.603 L
150.942 335.098 L
151.893 334.606 L
152.844 334.125 L
153.796 333.657 L
154.747 333.201 L
155.698 332.757 L
156.649 332.324 L
157.6 331.903 L
158.551 331.492 L
159.502 331.093 L
160.453 330.704 L
161.404 330.326 L
162.356 329.959 L
163.307 329.601 L
164.258 329.254 L
165.209 328.916 L
166.16 328.588 L
167.111 328.269 L
168.062 327.96 L
169.013 327.659 L
169.964 327.367 L
170.916 327.084 L
171.867 326.809 L
172.818 326.542 L
S
GR
GS
[0.75 0 0 0.75 0 -0.25] CT
0.467 0.675 0.188 RC
2 LJ
N
172.818 326.542 M
173.769 326.284 L
174.72 326.033 L
175.671 325.79 L
176.622 325.555 L
177.573 325.326 L
178.524 325.105 L
179.476 324.892 L
180.427 324.685 L
181.378 324.484 L
182.329 324.291 L
183.28 324.103 L
184.231 323.922 L
185.182 323.747 L
186.133 323.578 L
187.084 323.415 L
188.036 323.258 L
188.987 323.106 L
189.938 322.959 L
190.889 322.818 L
191.84 322.682 L
192.791 322.552 L
193.742 322.426 L
194.693 322.305 L
195.644 322.188 L
196.596 322.077 L
197.547 321.969 L
198.498 321.867 L
199.449 321.768 L
200.4 321.674 L
201.351 321.584 L
202.302 321.497 L
203.253 321.415 L
204.204 321.337 L
205.156 321.262 L
206.107 321.191 L
207.058 321.123 L
208.009 321.059 L
208.96 320.998 L
209.911 320.941 L
210.862 320.887 L
211.813 320.836 L
212.764 320.788 L
213.716 320.743 L
214.667 320.701 L
215.618 320.661 L
216.569 320.625 L
217.52 320.591 L
218.471 320.56 L
219.422 320.532 L
S
GR
GS
[0.75 0 0 0.75 0 -0.25] CT
0.467 0.675 0.188 RC
2 LJ
N
219.422 320.532 M
220.373 320.506 L
221.324 320.483 L
222.276 320.462 L
223.227 320.443 L
224.178 320.427 L
225.129 320.412 L
226.08 320.401 L
227.031 320.391 L
227.982 320.383 L
228.933 320.377 L
229.884 320.374 L
230.836 320.372 L
231.787 320.372 L
232.738 320.374 L
233.689 320.378 L
234.64 320.384 L
235.591 320.391 L
236.542 320.4 L
237.493 320.411 L
238.444 320.423 L
239.396 320.437 L
240.347 320.452 L
241.298 320.469 L
242.249 320.487 L
243.2 320.506 L
244.151 320.527 L
245.102 320.55 L
246.053 320.573 L
247.004 320.598 L
247.956 320.625 L
248.907 320.652 L
249.858 320.681 L
250.809 320.71 L
251.76 320.741 L
252.711 320.773 L
253.662 320.806 L
254.613 320.84 L
255.564 320.875 L
256.516 320.911 L
257.467 320.949 L
258.418 320.987 L
259.369 321.025 L
260.32 321.065 L
261.271 321.106 L
262.222 321.148 L
263.173 321.19 L
264.124 321.233 L
265.076 321.277 L
266.027 321.322 L
S
GR
GS
[0.75 0 0 0.75 0 -0.25] CT
0.467 0.675 0.188 RC
2 LJ
N
266.027 321.322 M
266.978 321.367 L
267.929 321.413 L
268.88 321.46 L
269.831 321.508 L
270.782 321.556 L
271.733 321.605 L
272.684 321.655 L
273.636 321.705 L
274.587 321.756 L
275.538 321.807 L
276.489 321.859 L
277.44 321.911 L
278.391 321.964 L
279.342 322.018 L
280.293 322.072 L
281.244 322.127 L
282.196 322.182 L
283.147 322.237 L
284.098 322.293 L
285.049 322.35 L
286 322.406 L
286.951 322.464 L
287.902 322.521 L
288.853 322.579 L
289.804 322.638 L
290.756 322.696 L
291.707 322.756 L
292.658 322.815 L
293.609 322.875 L
294.56 322.935 L
295.511 322.995 L
296.462 323.056 L
297.413 323.117 L
298.364 323.179 L
299.316 323.24 L
300.267 323.302 L
301.218 323.364 L
302.169 323.427 L
303.12 323.489 L
304.071 323.552 L
305.022 323.615 L
305.973 323.678 L
306.924 323.742 L
307.876 323.806 L
308.827 323.869 L
309.778 323.934 L
310.729 323.998 L
311.68 324.062 L
312.631 324.127 L
S
GR
GS
[0.75 0 0 0.75 0 -0.25] CT
0.467 0.675 0.188 RC
2 LJ
N
312.631 324.127 M
313.582 324.192 L
314.533 324.256 L
315.484 324.321 L
316.436 324.387 L
317.387 324.452 L
318.338 324.517 L
319.289 324.583 L
320.24 324.649 L
321.191 324.714 L
322.142 324.78 L
323.093 324.846 L
324.044 324.912 L
324.996 324.978 L
325.947 325.045 L
326.898 325.111 L
327.849 325.177 L
328.8 325.244 L
329.751 325.31 L
330.702 325.377 L
331.653 325.443 L
332.604 325.51 L
333.556 325.577 L
334.507 325.643 L
335.458 325.71 L
336.409 325.777 L
337.36 325.844 L
338.311 325.911 L
339.262 325.977 L
340.213 326.044 L
341.164 326.111 L
342.116 326.178 L
343.067 326.245 L
344.018 326.312 L
344.969 326.379 L
345.92 326.446 L
346.871 326.513 L
347.822 326.58 L
348.773 326.647 L
349.724 326.713 L
350.676 326.78 L
351.627 326.847 L
352.578 326.914 L
353.529 326.981 L
354.48 327.047 L
355.431 327.114 L
356.382 327.181 L
357.333 327.247 L
358.284 327.314 L
359.236 327.381 L
S
GR
GS
[0.75 0 0 0.75 0 -0.25] CT
0.467 0.675 0.188 RC
2 LJ
N
359.236 327.381 M
360.187 327.447 L
361.138 327.514 L
362.089 327.58 L
363.04 327.646 L
363.991 327.713 L
364.942 327.779 L
365.893 327.845 L
366.844 327.911 L
367.796 327.977 L
368.747 328.043 L
369.698 328.109 L
370.649 328.175 L
371.6 328.241 L
372.551 328.307 L
373.502 328.373 L
374.453 328.438 L
375.404 328.504 L
376.356 328.569 L
377.307 328.635 L
378.258 328.7 L
379.209 328.765 L
380.16 328.83 L
381.111 328.895 L
382.062 328.96 L
383.013 329.025 L
383.964 329.09 L
384.916 329.155 L
385.867 329.22 L
386.818 329.284 L
387.769 329.349 L
388.72 329.413 L
389.671 329.477 L
390.622 329.541 L
391.573 329.605 L
392.524 329.669 L
393.476 329.733 L
394.427 329.797 L
395.378 329.861 L
396.329 329.924 L
397.28 329.988 L
398.231 330.051 L
399.182 330.115 L
400.133 330.178 L
401.084 330.241 L
402.036 330.304 L
402.987 330.367 L
403.938 330.43 L
404.889 330.492 L
405.84 330.555 L
S
GR
GS
[0.75 0 0 0.75 0 -0.25] CT
0.467 0.675 0.188 RC
2 LJ
N
405.84 330.555 M
406.791 330.617 L
407.742 330.68 L
408.693 330.742 L
409.644 330.804 L
410.596 330.866 L
411.547 330.928 L
412.498 330.99 L
413.449 331.051 L
414.4 331.113 L
415.351 331.174 L
416.302 331.236 L
417.253 331.297 L
418.204 331.358 L
419.156 331.419 L
420.107 331.48 L
421.058 331.541 L
422.009 331.602 L
422.96 331.662 L
423.911 331.722 L
424.862 331.783 L
425.813 331.843 L
426.764 331.903 L
427.716 331.963 L
428.667 332.023 L
429.618 332.083 L
430.569 332.142 L
431.52 332.202 L
432.471 332.261 L
433.422 332.32 L
434.373 332.379 L
435.324 332.439 L
436.276 332.497 L
437.227 332.556 L
438.178 332.615 L
439.129 332.673 L
440.08 332.732 L
441.031 332.79 L
441.982 332.848 L
442.933 332.906 L
443.884 332.964 L
444.836 333.022 L
445.787 333.08 L
446.738 333.137 L
447.689 333.195 L
448.64 333.252 L
449.591 333.309 L
450.542 333.366 L
451.493 333.423 L
452.444 333.48 L
S
GR
GS
[0.75 0 0 0.75 0 -0.25] CT
0.467 0.675 0.188 RC
2 LJ
N
452.444 333.48 M
453.396 333.537 L
454.347 333.594 L
455.298 333.65 L
456.249 333.706 L
457.2 333.763 L
458.151 333.819 L
459.102 333.875 L
460.053 333.931 L
461.004 333.987 L
461.956 334.042 L
462.907 334.098 L
463.858 334.153 L
464.809 334.208 L
465.76 334.264 L
466.711 334.319 L
467.662 334.373 L
468.613 334.428 L
469.564 334.483 L
470.516 334.538 L
471.467 334.592 L
472.418 334.646 L
473.369 334.7 L
474.32 334.755 L
475.271 334.809 L
476.222 334.862 L
477.173 334.916 L
478.124 334.97 L
479.076 335.023 L
480.027 335.076 L
480.978 335.13 L
481.929 335.183 L
482.88 335.236 L
483.831 335.289 L
484.782 335.341 L
485.733 335.394 L
486.684 335.447 L
487.636 335.499 L
488.587 335.551 L
489.538 335.604 L
490.489 335.656 L
491.44 335.708 L
492.391 335.759 L
493.342 335.811 L
494.293 335.863 L
495.244 335.914 L
496.196 335.965 L
497.147 336.017 L
498.098 336.068 L
499.049 336.119 L
S
GR
GS
[0.75 0 0 0.75 0 -0.25] CT
0.467 0.675 0.188 RC
2 LJ
N
499.049 336.119 M
500 336.17 L
S
GR
GS
[0.75 0 0 0.75 0 -0.25] CT
1 GC
N
266 137 M
266 54 L
432 54 L
432 137 L
cp
f
GR
GS
[0.75 0 0 0.75 238.5 47.875] CT
/Helvetica 12 F
GS
[1 0 0 1 0 0] CT
0 4.5 moveto 
1 -1 scale
(Ideal gas 298K) t 
GR
GR
GS
[0.75 0 0 0.75 0 -0.25] CT
0 0.447 0.741 RC
2 LJ
N
274 64.167 M
314 64.167 L
S
GR
GS
[0.75 0 0 0.75 238.5 59.625] CT
/Helvetica 12 F
GS
[1 0 0 1 0 0] CT
0 4.5 moveto 
1 -1 scale
(Supercritical 373K) t 
GR
GR
GS
[0.75 0 0 0.75 0 -0.25] CT
0.851 0.325 0.098 RC
2 LJ
N
274 79.833 M
314 79.833 L
S
GR
GS
[0.75 0 0 0.75 238.5 71.375] CT
/Helvetica 12 F
GS
[1 0 0 1 0 0] CT
0 4.5 moveto 
1 -1 scale
(Critical 320K) t 
GR
GR
GS
[0.75 0 0 0.75 0 -0.25] CT
0.929 0.694 0.125 RC
2 LJ
N
274 95.5 M
314 95.5 L
S
GR
GS
[0.75 0 0 0.75 238.5 83.125] CT
/Helvetica 12 F
GS
[1 0 0 1 0 0] CT
0 4.5 moveto 
1 -1 scale
(Subcritical 304K) t 
GR
GR
GS
[0.75 0 0 0.75 0 -0.25] CT
0.494 0.184 0.557 RC
2 LJ
N
274 111.167 M
314 111.167 L
S
GR
GS
[0.75 0 0 0.75 238.5 94.875] CT
/Helvetica 12 F
GS
[1 0 0 1 0 0] CT
0 4.5 moveto 
1 -1 scale
(Subcritical 260K) t 
GR
GR
GS
[0.75 0 0 0.75 0 -0.25] CT
0.467 0.675 0.188 RC
2 LJ
N
274 126.833 M
314 126.833 L
S
GR
GS
[0.75 0 0 0.75 0 -0.25] CT
0.149 GC
2 LJ
N
266 137 M
266 54 L
432 54 L
432 137 L
266 137 L
S
GR
%%Trailer
%%Pages: 1
%%EOF
