\relax 
\providecommand\hyper@newdestlabel[2]{}
\providecommand\HyperFirstAtBeginDocument{\AtBeginDocument}
\HyperFirstAtBeginDocument{\ifx\hyper@anchor\@undefined
\global\let\oldcontentsline\contentsline
\gdef\contentsline#1#2#3#4{\oldcontentsline{#1}{#2}{#3}}
\global\let\oldnewlabel\newlabel
\gdef\newlabel#1#2{\newlabelxx{#1}#2}
\gdef\newlabelxx#1#2#3#4#5#6{\oldnewlabel{#1}{{#2}{#3}}}
\AtEndDocument{\ifx\hyper@anchor\@undefined
\let\contentsline\oldcontentsline
\let\newlabel\oldnewlabel
\fi}
\fi}
\global\let\hyper@last\relax 
\gdef\HyperFirstAtBeginDocument#1{#1}
\providecommand\HyField@AuxAddToFields[1]{}
\providecommand\HyField@AuxAddToCoFields[2]{}
\@input{titlepage.aux}
\providecommand\tcolorbox@label[2]{}
\select@language{british}
\@writefile{toc}{\select@language{british}}
\@writefile{lof}{\select@language{british}}
\@writefile{lot}{\select@language{british}}
\newlabel{chapter:abstract}{{}{\textlatin  {ii}}{Abstract}{chapter*.1}{}}
\@writefile{toc}{\contentsline {chapter}{Contents}{\textlatin  {iii}}{chapter*.2}}
\@writefile{toc}{\contentsline {chapter}{\numberline {1}Introduction}{1}{chapter.1}}
\@writefile{lof}{\addvspace {10\p@ }}
\@writefile{lot}{\addvspace {10\p@ }}
\newlabel{chapter:introduction}{{1}{1}{Introduction}{chapter.1}{}}
\@writefile{toc}{\contentsline {section}{\numberline {1.1}Poiseuille Flow}{1}{section.1.1}}
\citation{zarate}
\@writefile{toc}{\contentsline {chapter}{\numberline {2}Fluctuation Hydrodynamics}{2}{chapter.2}}
\@writefile{lof}{\addvspace {10\p@ }}
\@writefile{lot}{\addvspace {10\p@ }}
\newlabel{chapter:fluctuations}{{2}{2}{Fluctuation Hydrodynamics}{chapter.2}{}}
\@writefile{toc}{\contentsline {section}{\numberline {2.1}Turbulence}{2}{section.2.1}}
\@writefile{toc}{\contentsline {section}{\numberline {2.2}Nonequilibrium thermodynamics }{2}{section.2.2}}
\@writefile{brf}{\backcite{zarate}{{2}{2.2}{section.2.2}}}
\@writefile{toc}{\contentsline {subsection}{\numberline {2.2.1}Local thermodynamic properties}{2}{subsection.2.2.1}}
\@writefile{toc}{\contentsline {subsubsection}{Equilibrium thermodynamics}{2}{section*.3}}
\@writefile{toc}{\contentsline {subsubsection}{Continuum hypothesis and the assumption of local equilibrium}{3}{section*.4}}
\@writefile{toc}{\contentsline {subsection}{\numberline {2.2.2}Balance Laws}{3}{subsection.2.2.2}}
\@writefile{toc}{\contentsline {subsubsection}{Mass balance}{3}{section*.5}}
\@writefile{toc}{\contentsline {subsubsection}{Pressure tensor}{4}{section*.6}}
\@writefile{toc}{\contentsline {subsubsection}{Momentum balance}{6}{section*.7}}
\@writefile{toc}{\contentsline {subsubsection}{Energy balance}{7}{section*.8}}
\newlabel{equation:potential_energy}{{2.1}{7}{Energy balance}{equation.2.2.1}{}}
\newlabel{prove:density_potential}{{2.2.2}{7}{Energy balance}{equation.2.2.1}{}}
\newlabel{eq:kinetic_energy}{{2.3}{7}{Energy balance}{equation.2.2.3}{}}
\newlabel{equation:total_mechanical_energy}{{2.5}{8}{Energy balance}{equation.2.2.5}{}}
\newlabel{equation:balance_internal_energy}{{2.7}{8}{Energy balance}{equation.2.2.7}{}}
\newlabel{prove_total_energy_density_conserved}{{2.2.2}{8}{Energy balance}{equation.2.2.7}{}}
\@writefile{toc}{\contentsline {subsection}{\numberline {2.2.3}Entropy balance, dissipative fluxes and thermodynamic forces}{8}{subsection.2.2.3}}
\newlabel{equation:balance_entropy_local_equilibrium_1}{{2.10}{8}{Entropy balance, dissipative fluxes and thermodynamic forces}{equation.2.2.10}{}}
\newlabel{equation:balance_entropy_local_equilibrium_2}{{2.11}{8}{Entropy balance, dissipative fluxes and thermodynamic forces}{equation.2.2.11}{}}
\newlabel{equation:balance_equation}{{2.12}{9}{Entropy balance, dissipative fluxes and thermodynamic forces}{equation.2.2.12}{}}
\newlabel{equation:balance_equation_2}{{2.13}{9}{Entropy balance, dissipative fluxes and thermodynamic forces}{equation.2.2.13}{}}
\newlabel{dissipative_fluxes}{{2.2.3}{9}{Entropy balance, dissipative fluxes and thermodynamic forces}{equation.2.2.13}{}}
\@writefile{toc}{\contentsline {subsubsection}{Phenomenological relations}{9}{section*.9}}
\newlabel{subsubsection:phenomenological_relations}{{2.2.3}{9}{Phenomenological relations}{section*.9}{}}
\newlabel{equation:phenomenological_relations}{{2.15}{9}{Phenomenological relations}{equation.2.2.15}{}}
\newlabel{equation:onsager}{{2.2.3}{10}{Phenomenological relations}{equation.2.2.15}{}}
\@writefile{toc}{\contentsline {subsection}{\numberline {2.2.4}Hydrodynamic equations}{10}{subsection.2.2.4}}
\newlabel{subsection:Hydrodynamic_equations}{{2.2.4}{10}{Hydrodynamic equations}{subsection.2.2.4}{}}
\@writefile{toc}{\contentsline {subsubsection}{One-component fluid}{10}{section*.10}}
\newlabel{subsubsection:hydrodynamic_eqn_one_component}{{2.2.4}{10}{One-component fluid}{section*.10}{}}
\newlabel{equation:dissipation_function_one_component}{{2.21}{10}{One-component fluid}{equation.2.2.21}{}}
\newlabel{equation:fourier_heat}{{2.22}{10}{One-component fluid}{equation.2.2.22}{}}
\newlabel{equation:newton_law_viscosity}{{2.23}{10}{One-component fluid}{equation.2.2.23}{}}
\@writefile{toc}{\contentsline {chapter}{\numberline {3}Second Real Chapter}{13}{chapter.3}}
\@writefile{lof}{\addvspace {10\p@ }}
\@writefile{lot}{\addvspace {10\p@ }}
\newlabel{chapter:second_real_chapter}{{3}{13}{Second Real Chapter}{chapter.3}{}}
\@writefile{toc}{\contentsline {chapter}{\numberline {4}Conclusions}{15}{chapter.4}}
\@writefile{lof}{\addvspace {10\p@ }}
\@writefile{lot}{\addvspace {10\p@ }}
\newlabel{chapter:conclusions}{{4}{15}{Conclusions}{chapter.4}{}}
\bibstyle{plain}
\bibdata{references}
\bibcite{zarate}{1}
\@writefile{toc}{\contentsline {chapter}{Bibliography}{17}{chapter*.11}}
\@writefile{toc}{\contentsline {chapter}{Appendix}{19}{chapter*.11}}
\@writefile{toc}{\contentsline {chapter}{\numberline {A}My First Appendix}{19}{appendix.A}}
\@writefile{lof}{\addvspace {10\p@ }}
\@writefile{lot}{\addvspace {10\p@ }}
