\select@language {british}
\contentsline {chapter}{Contents}{\textlatin {iii}}{chapter*.2}
\contentsline {chapter}{\numberline {1}Introduction}{1}{chapter.1}
\contentsline {section}{\numberline {1.1}Poiseuille Flow}{1}{section.1.1}
\contentsline {chapter}{\numberline {2}Fluctuation Hydrodynamics}{2}{chapter.2}
\contentsline {section}{\numberline {2.1}Turbulence}{2}{section.2.1}
\contentsline {section}{\numberline {2.2}Nonequilibrium thermodynamics }{2}{section.2.2}
\contentsline {subsection}{\numberline {2.2.1}Local thermodynamic properties}{2}{subsection.2.2.1}
\contentsline {subsubsection}{Equilibrium thermodynamics}{2}{section*.3}
\contentsline {subsubsection}{Continuum hypothesis and the assumption of local equilibrium}{3}{section*.4}
\contentsline {subsection}{\numberline {2.2.2}Balance Laws}{3}{subsection.2.2.2}
\contentsline {subsubsection}{Mass balance}{3}{section*.5}
\contentsline {subsubsection}{Pressure tensor}{4}{section*.6}
\contentsline {subsubsection}{Momentum balance}{6}{section*.7}
\contentsline {subsubsection}{Energy balance}{7}{section*.8}
\contentsline {subsection}{\numberline {2.2.3}Entropy balance, dissipative fluxes and thermodynamic forces}{8}{subsection.2.2.3}
\contentsline {subsubsection}{Phenomenological relations}{9}{section*.9}
\contentsline {subsection}{\numberline {2.2.4}Hydrodynamic equations}{10}{subsection.2.2.4}
\contentsline {subsubsection}{One-component fluid}{10}{section*.10}
\contentsline {chapter}{\numberline {3}Second Real Chapter}{13}{chapter.3}
\contentsline {chapter}{\numberline {4}Conclusions}{15}{chapter.4}
\contentsline {chapter}{Bibliography}{17}{chapter*.11}
\contentsline {chapter}{Appendix}{19}{chapter*.11}
\contentsline {chapter}{\numberline {A}My First Appendix}{19}{appendix.A}
