# Fdb version 3
["bibtex report"] 1475744991 "report.aux" "report.bbl" "report" 1475745044
  "/usr/share/texlive/texmf-dist/bibtex/bst/base/plain.bst" 1292289607 20613 bd3fbfa9f64872b81ac57a0dd2ed855f ""
  "references.bib" 1475744214 2377 14093f14aff6d0e4085ab458df93e370 ""
  "report.aux" 1475744998 5886 ecde0a9f3f3f3887ebdf453a6f18b7f6 ""
  "report.bcf" 0 -1 0 ""
  "titlepage.aux" 1475744998 1086 9e5314fe9d2ce896e4a1de9605629b44 ""
  (generated)
  "report.bbl"
  "report.blg"
["pdflatex"] 1475744998 "report.tex" "report.pdf" "report" 1475745044
  "/etc/texmf/web2c/texmf.cnf" 1462188883 1101 af7716885e081ab43982cab7b4672c1a ""
  "/usr/share/texlive/texmf-dist/fonts/map/fontname/texfonts.map" 1272929888 3287 e6b82fe08f5336d4d5ebc73fb1152e87 ""
  "/usr/share/texlive/texmf-dist/fonts/tfm/adobe/symbol/psyr.tfm" 1136768653 1408 5937f58aa508ea2cea4901c07d10f5fe ""
  "/usr/share/texlive/texmf-dist/fonts/tfm/adobe/zapfding/pzdr.tfm" 1136768653 1528 f853c4d1b4e0550255e02831fdc8496f ""
  "/usr/share/texlive/texmf-dist/fonts/tfm/public/amsfonts/cmextra/cmbsy5.tfm" 1246382020 1120 1e8878807317373affa7f7bba4cf2f6a ""
  "/usr/share/texlive/texmf-dist/fonts/tfm/public/amsfonts/cmextra/cmbsy7.tfm" 1246382020 1120 7f9f170e8aa57527ad6c49feafd45d54 ""
  "/usr/share/texlive/texmf-dist/fonts/tfm/public/amsfonts/cmextra/cmex7.tfm" 1246382020 1004 54797486969f23fa377b128694d548df ""
  "/usr/share/texlive/texmf-dist/fonts/tfm/public/amsfonts/cmextra/cmex8.tfm" 1246382020 988 bdf658c3bfc2d96d3c8b02cfc1c94c20 ""
  "/usr/share/texlive/texmf-dist/fonts/tfm/public/amsfonts/cmextra/cmmib5.tfm" 1246382020 1496 c79f6914c6d39ffb3759967363d1be79 ""
  "/usr/share/texlive/texmf-dist/fonts/tfm/public/amsfonts/cmextra/cmmib7.tfm" 1246382020 1508 6e807ff901c35a5f1fde0ca275533df8 ""
  "/usr/share/texlive/texmf-dist/fonts/tfm/public/cm/cmbsy10.tfm" 1136768653 1116 4e6ba9d7914baa6482fd69f67d126380 ""
  "/usr/share/texlive/texmf-dist/fonts/tfm/public/cm/cmbx10.tfm" 1136768653 1328 c834bbb027764024c09d3d2bf908b5f0 ""
  "/usr/share/texlive/texmf-dist/fonts/tfm/public/cm/cmbx12.tfm" 1136768653 1324 c910af8c371558dc20f2d7822f66fe64 ""
  "/usr/share/texlive/texmf-dist/fonts/tfm/public/cm/cmbx5.tfm" 1136768653 1332 f817c21a1ba54560425663374f1b651a ""
  "/usr/share/texlive/texmf-dist/fonts/tfm/public/cm/cmbx7.tfm" 1136768653 1336 3125ccb448c1a09074e3aa4a9832f130 ""
  "/usr/share/texlive/texmf-dist/fonts/tfm/public/cm/cmex10.tfm" 1136768653 992 662f679a0b3d2d53c1b94050fdaa3f50 ""
  "/usr/share/texlive/texmf-dist/fonts/tfm/public/cm/cmmi12.tfm" 1136768653 1524 4414a8315f39513458b80dfc63bff03a ""
  "/usr/share/texlive/texmf-dist/fonts/tfm/public/cm/cmmi6.tfm" 1136768653 1512 f21f83efb36853c0b70002322c1ab3ad ""
  "/usr/share/texlive/texmf-dist/fonts/tfm/public/cm/cmmi8.tfm" 1136768653 1520 eccf95517727cb11801f4f1aee3a21b4 ""
  "/usr/share/texlive/texmf-dist/fonts/tfm/public/cm/cmmib10.tfm" 1136768653 1524 554068197b70979a55370e6c6495f441 ""
  "/usr/share/texlive/texmf-dist/fonts/tfm/public/cm/cmr12.tfm" 1136768653 1288 655e228510b4c2a1abe905c368440826 ""
  "/usr/share/texlive/texmf-dist/fonts/tfm/public/cm/cmr17.tfm" 1136768653 1292 296a67155bdbfc32aa9c636f21e91433 ""
  "/usr/share/texlive/texmf-dist/fonts/tfm/public/cm/cmr6.tfm" 1136768653 1300 b62933e007d01cfd073f79b963c01526 ""
  "/usr/share/texlive/texmf-dist/fonts/tfm/public/cm/cmr8.tfm" 1136768653 1292 21c1c5bfeaebccffdb478fd231a0997d ""
  "/usr/share/texlive/texmf-dist/fonts/tfm/public/cm/cmsl10.tfm" 1136768653 1508 efecb4a315fe0975509670a272d75ef5 ""
  "/usr/share/texlive/texmf-dist/fonts/tfm/public/cm/cmsy10.tfm" 1136768653 1124 6c73e740cf17375f03eec0ee63599741 ""
  "/usr/share/texlive/texmf-dist/fonts/tfm/public/cm/cmsy6.tfm" 1136768653 1116 933a60c408fc0a863a92debe84b2d294 ""
  "/usr/share/texlive/texmf-dist/fonts/tfm/public/cm/cmsy8.tfm" 1136768653 1120 8b7d695260f3cff42e636090a8002094 ""
  "/usr/share/texlive/texmf-dist/fonts/tfm/public/cm/cmti10.tfm" 1136768653 1480 aa8e34af0eb6a2941b776984cf1dfdc4 ""
  "/usr/share/texlive/texmf-dist/fonts/tfm/public/cm/cmti12.tfm" 1136768653 1484 ed72f8f5cf654cda15ecc8e32bfcbee5 ""
  "/usr/share/texlive/texmf-dist/fonts/type1/public/amsfonts/cm/cmbx10.pfb" 1248133631 34811 78b52f49e893bcba91bd7581cdc144c0 ""
  "/usr/share/texlive/texmf-dist/fonts/type1/public/amsfonts/cm/cmbx12.pfb" 1248133631 32080 340ef9bf63678554ee606688e7b5339d ""
  "/usr/share/texlive/texmf-dist/fonts/type1/public/amsfonts/cm/cmex10.pfb" 1248133631 30251 6afa5cb1d0204815a708a080681d4674 ""
  "/usr/share/texlive/texmf-dist/fonts/type1/public/amsfonts/cm/cmmi10.pfb" 1248133631 36299 5f9df58c2139e7edcf37c8fca4bd384d ""
  "/usr/share/texlive/texmf-dist/fonts/type1/public/amsfonts/cm/cmmi7.pfb" 1248133631 36281 c355509802a035cadc5f15869451dcee ""
  "/usr/share/texlive/texmf-dist/fonts/type1/public/amsfonts/cm/cmmib10.pfb" 1248133631 36912 b448ef9ad9d7228ec3c6e71005136d55 ""
  "/usr/share/texlive/texmf-dist/fonts/type1/public/amsfonts/cm/cmr10.pfb" 1248133631 35752 024fb6c41858982481f6968b5fc26508 ""
  "/usr/share/texlive/texmf-dist/fonts/type1/public/amsfonts/cm/cmr12.pfb" 1248133631 32722 d7379af29a190c3f453aba36302ff5a9 ""
  "/usr/share/texlive/texmf-dist/fonts/type1/public/amsfonts/cm/cmr7.pfb" 1248133631 32762 224316ccc9ad3ca0423a14971cfa7fc1 ""
  "/usr/share/texlive/texmf-dist/fonts/type1/public/amsfonts/cm/cmsl10.pfb" 1248133631 35022 e40946b20bfdcd1099eafb2bcd9f25dd ""
  "/usr/share/texlive/texmf-dist/fonts/type1/public/amsfonts/cm/cmsy10.pfb" 1248133631 32569 5e5ddc8df908dea60932f3c484a54c0d ""
  "/usr/share/texlive/texmf-dist/fonts/type1/public/amsfonts/cm/cmsy7.pfb" 1248133631 32716 08e384dc442464e7285e891af9f45947 ""
  "/usr/share/texlive/texmf-dist/fonts/type1/public/amsfonts/cm/cmti10.pfb" 1248133631 37944 359e864bd06cde3b1cf57bb20757fb06 ""
  "/usr/share/texlive/texmf-dist/fonts/type1/public/amsfonts/cm/cmti12.pfb" 1248133631 36118 fad905eba93cff5bce1e185fe980a177 ""
  "/usr/share/texlive/texmf-dist/tex/context/base/supp-pdf.mkii" 1337017135 71627 94eb9990bed73c364d7f53f960cc8c5b ""
  "/usr/share/texlive/texmf-dist/tex/generic/babel-english/english.ldf" 1367878877 6963 2e0cb3d93aa64508bdb0db58ae900d97 ""
  "/usr/share/texlive/texmf-dist/tex/generic/babel-greek/greek.ldf" 1454715125 20587 f3b6677080ba7d27fa39048d40acdf3b ""
  "/usr/share/texlive/texmf-dist/tex/generic/babel/babel.def" 1456440043 50112 f44490c2cb959606ae206a8f9f3f70e2 ""
  "/usr/share/texlive/texmf-dist/tex/generic/babel/babel.sty" 1456440043 13499 cfeb1da37929c37eb2a356b8abd63f74 ""
  "/usr/share/texlive/texmf-dist/tex/generic/ifxetex/ifxetex.sty" 1284331290 1458 43ab4710dc82f3edeabecd0d099626b2 ""
  "/usr/share/texlive/texmf-dist/tex/generic/oberdiek/etexcmds.sty" 1335995445 7612 c47308d923ec19888707b0f1792b326a ""
  "/usr/share/texlive/texmf-dist/tex/generic/oberdiek/gettitlestring.sty" 1303254447 8237 52810bdb4db2270e717422560a104aea ""
  "/usr/share/texlive/texmf-dist/tex/generic/oberdiek/hobsub-generic.sty" 1338332114 189108 8b3553a56c83ff61acecb36b75d817e2 ""
  "/usr/share/texlive/texmf-dist/tex/generic/oberdiek/hobsub-hyperref.sty" 1338332114 70752 45fa392800e07da61fa13446ad46b34d ""
  "/usr/share/texlive/texmf-dist/tex/generic/oberdiek/ifluatex.sty" 1303254447 7324 11d14f318d865f420e692d4e6c9c18c3 ""
  "/usr/share/texlive/texmf-dist/tex/generic/oberdiek/ifpdf.sty" 1303254447 7140 ece2cc23d9f20e1f53975ac167f42d3e ""
  "/usr/share/texlive/texmf-dist/tex/generic/oberdiek/infwarerr.sty" 1335995445 8253 3bdedc8409aa5d290a2339be6f09af03 ""
  "/usr/share/texlive/texmf-dist/tex/generic/oberdiek/kvsetkeys.sty" 1335995445 14040 8de9f47fabc4ca3bd69b6d795e32751c ""
  "/usr/share/texlive/texmf-dist/tex/generic/oberdiek/ltxcmds.sty" 1335995445 18425 775b341047ce304520cc7c11ca41392e ""
  "/usr/share/texlive/texmf-dist/tex/generic/oberdiek/pdftexcmds.sty" 1335995445 19987 01cb2f3c1d21e5f05711b7fd50b17f2a ""
  "/usr/share/texlive/texmf-dist/tex/generic/pgf/basiclayer/pgfcore.code.tex" 1288312291 1006 b103be0bfc8c1682ff1fa9760697a329 ""
  "/usr/share/texlive/texmf-dist/tex/generic/pgf/basiclayer/pgfcorearrows.code.tex" 1439074469 43226 167a99346bfe2676e3efcdde2d81fe45 ""
  "/usr/share/texlive/texmf-dist/tex/generic/pgf/basiclayer/pgfcoreexternal.code.tex" 1439074469 19302 4f089dc590e71f7331e6d5b5ea85273b ""
  "/usr/share/texlive/texmf-dist/tex/generic/pgf/basiclayer/pgfcoregraphicstate.code.tex" 1439074469 6068 edae1e768a7d8d8f0f00e953d2b0153e ""
  "/usr/share/texlive/texmf-dist/tex/generic/pgf/basiclayer/pgfcoreimage.code.tex" 1393459310 7041 a891ad72049e17c4e366c40ca37b0ccb ""
  "/usr/share/texlive/texmf-dist/tex/generic/pgf/basiclayer/pgfcorelayers.code.tex" 1393459310 4625 40c07e9f6f2f7c674704b3f2055560ce ""
  "/usr/share/texlive/texmf-dist/tex/generic/pgf/basiclayer/pgfcoreobjects.code.tex" 1203877327 2631 7eefa6cdbefd8d4e2bad7262cf1094cd ""
  "/usr/share/texlive/texmf-dist/tex/generic/pgf/basiclayer/pgfcorepathconstruct.code.tex" 1393459310 43477 81143b33d9ebafdeead07ede13372427 ""
  "/usr/share/texlive/texmf-dist/tex/generic/pgf/basiclayer/pgfcorepathprocessing.code.tex" 1393459310 17436 8d99d4113be311daf23deff86991ee7d ""
  "/usr/share/texlive/texmf-dist/tex/generic/pgf/basiclayer/pgfcorepathusage.code.tex" 1439074469 20772 c57e34db4aa7b1da013169d04b743eac ""
  "/usr/share/texlive/texmf-dist/tex/generic/pgf/basiclayer/pgfcorepatterns.code.tex" 1393459310 9641 711f0edc22c180a5caf168b6e8970057 ""
  "/usr/share/texlive/texmf-dist/tex/generic/pgf/basiclayer/pgfcorepoints.code.tex" 1393459310 34516 658a71478d21df554bce9d9cd436203a ""
  "/usr/share/texlive/texmf-dist/tex/generic/pgf/basiclayer/pgfcorequick.code.tex" 1288312291 3052 e5672c657232fd63b0a9853b0746297c ""
  "/usr/share/texlive/texmf-dist/tex/generic/pgf/basiclayer/pgfcorescopes.code.tex" 1439074469 16669 4ec6e40088fc6de6334b443fe2dc59f0 ""
  "/usr/share/texlive/texmf-dist/tex/generic/pgf/basiclayer/pgfcoreshade.code.tex" 1393459310 21541 4cd19f8ff7dd74d5aa7d803a6397af84 ""
  "/usr/share/texlive/texmf-dist/tex/generic/pgf/basiclayer/pgfcoretransformations.code.tex" 1439074469 19998 d77fef95c7369827753d17fd11be19c4 ""
  "/usr/share/texlive/texmf-dist/tex/generic/pgf/basiclayer/pgfcoretransparency.code.tex" 1393459310 8943 2e2495b057f8f0035b5568394d489963 ""
  "/usr/share/texlive/texmf-dist/tex/generic/pgf/math/pgfmath.code.tex" 1393459310 454 9e9e7c99f4da4f41698be21eaef4938e ""
  "/usr/share/texlive/texmf-dist/tex/generic/pgf/math/pgfmathcalc.code.tex" 1393459310 13416 940ea6971d7a65dc440d3479939c66ae ""
  "/usr/share/texlive/texmf-dist/tex/generic/pgf/math/pgfmathfloat.code.tex" 1439074469 94097 62ac62cda46eb715560dc27f9ed6e8b1 ""
  "/usr/share/texlive/texmf-dist/tex/generic/pgf/math/pgfmathfunctions.base.code.tex" 1393459310 9375 5adc70f722abd29fc250d59e0694b548 ""
  "/usr/share/texlive/texmf-dist/tex/generic/pgf/math/pgfmathfunctions.basic.code.tex" 1439074469 22069 7c21c42b15718ce922f36235be360490 ""
  "/usr/share/texlive/texmf-dist/tex/generic/pgf/math/pgfmathfunctions.code.tex" 1439074469 8210 a7be5b52ef3d2c087b7dc3d52898b67e ""
  "/usr/share/texlive/texmf-dist/tex/generic/pgf/math/pgfmathfunctions.comparison.code.tex" 1288312291 3534 c7f28fbac13616513e513efe93b8569b ""
  "/usr/share/texlive/texmf-dist/tex/generic/pgf/math/pgfmathfunctions.integerarithmetics.code.tex" 1393459310 3167 7c9394e79aac27db96a92f9b2792b858 ""
  "/usr/share/texlive/texmf-dist/tex/generic/pgf/math/pgfmathfunctions.misc.code.tex" 1439074469 9289 261407875b9dbb0194691c3eb893610f ""
  "/usr/share/texlive/texmf-dist/tex/generic/pgf/math/pgfmathfunctions.random.code.tex" 1439074469 7078 946ddf4a7e57219b6afdbad98eb6731b ""
  "/usr/share/texlive/texmf-dist/tex/generic/pgf/math/pgfmathfunctions.round.code.tex" 1288312291 2688 139c6abc86761a6190c2f4bef5d752be ""
  "/usr/share/texlive/texmf-dist/tex/generic/pgf/math/pgfmathfunctions.trigonometric.code.tex" 1439074469 92284 dcf023dbaa84e6c50e11c2f79fe8cfa6 ""
  "/usr/share/texlive/texmf-dist/tex/generic/pgf/math/pgfmathparser.code.tex" 1439074469 35430 046e15fbb65e74d8f0e7945f99741fdb ""
  "/usr/share/texlive/texmf-dist/tex/generic/pgf/math/pgfmathutil.code.tex" 1393459310 7099 f44d505bae6c7c2b933cdd63441db4b9 ""
  "/usr/share/texlive/texmf-dist/tex/generic/pgf/modules/pgfmoduleplot.code.tex" 1439074469 16203 83cbe1220e389eeee283a6168f9a567b ""
  "/usr/share/texlive/texmf-dist/tex/generic/pgf/modules/pgfmoduleshapes.code.tex" 1439074469 42906 d54376d96df1a2ae2d33fb722236d8e9 ""
  "/usr/share/texlive/texmf-dist/tex/generic/pgf/systemlayer/pgf.cfg" 1288312291 978 15af626ebd3d4d790aac19170dac04f2 ""
  "/usr/share/texlive/texmf-dist/tex/generic/pgf/systemlayer/pgfsys-common-pdf.def" 1393459310 5437 d91f93ed61ecdc57e119849b2d784a0b ""
  "/usr/share/texlive/texmf-dist/tex/generic/pgf/systemlayer/pgfsys-pdftex.def" 1439074469 13507 809d848d9262638e1b1705a68a73c566 ""
  "/usr/share/texlive/texmf-dist/tex/generic/pgf/systemlayer/pgfsys.code.tex" 1439074469 35113 2ccc50c1c9573e4bac9230d030f9c67c ""
  "/usr/share/texlive/texmf-dist/tex/generic/pgf/systemlayer/pgfsysprotocol.code.tex" 1203877327 1983 b5994ebbcee17f1ba3d29bb1bd696fcf ""
  "/usr/share/texlive/texmf-dist/tex/generic/pgf/systemlayer/pgfsyssoftpath.code.tex" 1393459310 7881 d459d6057e13d10ce7a227ae44b7295e ""
  "/usr/share/texlive/texmf-dist/tex/generic/pgf/utilities/pgfkeys.code.tex" 1393459310 36194 e194ef4e0b396b531a3891feb4b1cc22 ""
  "/usr/share/texlive/texmf-dist/tex/generic/pgf/utilities/pgfkeysfiltered.code.tex" 1393459310 33377 af391d6ad1bfcbe2278e191f48e43ba8 ""
  "/usr/share/texlive/texmf-dist/tex/generic/pgf/utilities/pgfrcs.code.tex" 1440888734 2536 a3b0529d815a2759ba157b56610a6377 ""
  "/usr/share/texlive/texmf-dist/tex/generic/pgf/utilities/pgfutil-common-lists.tex" 1393459310 6833 114eda2cf1d348e0e7e477a1a4dc1941 ""
  "/usr/share/texlive/texmf-dist/tex/generic/pgf/utilities/pgfutil-common.tex" 1439074469 16501 ab0135765e27b6b8dae047831fe84818 ""
  "/usr/share/texlive/texmf-dist/tex/generic/pgf/utilities/pgfutil-latex.def" 1439074469 5544 294baac9629ba59f675b1f2027ad7136 ""
  "/usr/share/texlive/texmf-dist/tex/generic/xkeyval/xkeyval.tex" 1417732693 19231 26434a5656c684f5ffb1f26f98006baa ""
  "/usr/share/texlive/texmf-dist/tex/generic/xkeyval/xkvutils.tex" 1403829539 7677 6f5ce7c1124cad7ec57d05b2562bd8fe ""
  "/usr/share/texlive/texmf-dist/tex/latex/a4wide/a4wide.sty" 1294273053 1635 717cb53b4323c7ff0cf7f675b11dfe05 ""
  "/usr/share/texlive/texmf-dist/tex/latex/amsmath/amsbsy.sty" 1456875012 2210 5c54ab129b848a5071554186d0168766 ""
  "/usr/share/texlive/texmf-dist/tex/latex/amsmath/amsgen.sty" 1456875012 4160 c115536cf8d4ff25aa8c1c9bc4ecb79a ""
  "/usr/share/texlive/texmf-dist/tex/latex/amsmath/amsmath.sty" 1457045335 81928 0154df1c78a3ed620f585b10d4169d63 ""
  "/usr/share/texlive/texmf-dist/tex/latex/amsmath/amsopn.sty" 1456875012 3867 f0be3ac1db1ca657e6117507a2a8d69b ""
  "/usr/share/texlive/texmf-dist/tex/latex/amsmath/amstext.sty" 1456875012 2431 fe3078ec12fc30287f568596f8e0b948 ""
  "/usr/share/texlive/texmf-dist/tex/latex/base/ifthen.sty" 1454284088 5159 a08c9bbd48fc492f15b22e458bef961f ""
  "/usr/share/texlive/texmf-dist/tex/latex/base/makeidx.sty" 1454284088 1940 c559b92ca91f1b2a0e60d836d4973f41 ""
  "/usr/share/texlive/texmf-dist/tex/latex/base/omscmr.fd" 1454284088 2256 80ce1168fb4ce6a85583a9cf8972c013 ""
  "/usr/share/texlive/texmf-dist/tex/latex/base/report.cls" 1454284088 23767 af7a57d94b487b22fe88f921af1af1a4 ""
  "/usr/share/texlive/texmf-dist/tex/latex/base/size10.clo" 1454284088 9179 4cd3c5f593e63512893b8ac0123f1bd7 ""
  "/usr/share/texlive/texmf-dist/tex/latex/booktabs/booktabs.sty" 1211777752 6375 989ecfb545a13610facc71ae7e40ced1 ""
  "/usr/share/texlive/texmf-dist/tex/latex/caption/caption.sty" 1456094605 66233 8b81cfab95a1f8fc2f0f6c89415b087a ""
  "/usr/share/texlive/texmf-dist/tex/latex/caption/caption3.sty" 1456094605 64437 7aae26f62358cb5be7cae9d865fab5b8 ""
  "/usr/share/texlive/texmf-dist/tex/latex/caption/ltcaption.sty" 1442533747 7257 dd37a106002acb997b6c947cf18f297e ""
  "/usr/share/texlive/texmf-dist/tex/latex/cbfonts-fd/lgrcmr.fd" 1378853315 2674 2c1bae5fece5b6780dad57a76de3eaff ""
  "/usr/share/texlive/texmf-dist/tex/latex/datetime/datetime-defaults.sty" 1427500626 4105 4c80eaed8cd4f9a80cc6244c0adeb81f ""
  "/usr/share/texlive/texmf-dist/tex/latex/datetime/datetime.sty" 1427500626 27587 b023ffe1328fa89e7f133201d87029de ""
  "/usr/share/texlive/texmf-dist/tex/latex/datetime/dt-british.def" 1427500626 2988 4afb6e765ea7e663f6d72fdf41d5637f ""
  "/usr/share/texlive/texmf-dist/tex/latex/datetime/dt-greek.def" 1427500626 3416 76ba678cc34af5f788da79acfded8709 ""
  "/usr/share/texlive/texmf-dist/tex/latex/environ/environ.sty" 1399239813 4378 f429f0da968c278653359293040a8f52 ""
  "/usr/share/texlive/texmf-dist/tex/latex/etoolbox/etoolbox.sty" 1438639395 41547 7860e623236f5f726a4099bbb7dd89fb ""
  "/usr/share/texlive/texmf-dist/tex/latex/fancyhdr/fancyhdr.sty" 1160175134 20521 e5d13d98d57bd53d4fed3aa61bd29c86 ""
  "/usr/share/texlive/texmf-dist/tex/latex/fmtcount/fc-english.def" 1431209950 14223 386b5e0dd77adf7e9000b2502c435475 ""
  "/usr/share/texlive/texmf-dist/tex/latex/fmtcount/fcnumparser.sty" 1431209950 12318 8cf8d202ffce635e3e7a66810cd81799 ""
  "/usr/share/texlive/texmf-dist/tex/latex/fmtcount/fcprefix.sty" 1431209950 12031 35b1b486444e4fe920dd4980dc8a36c3 ""
  "/usr/share/texlive/texmf-dist/tex/latex/fmtcount/fmtcount.sty" 1431209950 31359 e26cc1da17730a98fba6f4de24fe1dd5 ""
  "/usr/share/texlive/texmf-dist/tex/latex/graphics/color.sty" 1454284088 6829 2b7f546d7727252fdb2d538f7dee5a59 ""
  "/usr/share/texlive/texmf-dist/tex/latex/graphics/dvipsnam.def" 1454284088 4945 3b3a8face751255856839a3489e83341 ""
  "/usr/share/texlive/texmf-dist/tex/latex/graphics/graphics.sty" 1454284088 14337 b66dff1d80f6c21e70858a2b3c2d327d ""
  "/usr/share/texlive/texmf-dist/tex/latex/graphics/graphicx.sty" 1428932888 8125 557ab9f1bfa80d369fb45a914aa8a3b4 ""
  "/usr/share/texlive/texmf-dist/tex/latex/graphics/keyval.sty" 1428932888 2594 d18d5e19aa8239cf867fa670c556d2e9 ""
  "/usr/share/texlive/texmf-dist/tex/latex/graphics/lscape.sty" 1428932888 1757 94e21888eaf2391b7bbc441045c70c12 ""
  "/usr/share/texlive/texmf-dist/tex/latex/graphics/trig.sty" 1454284088 3980 0a268fbfda01e381fa95821ab13b6aee ""
  "/usr/share/texlive/texmf-dist/tex/latex/greek-fontenc/greek-fontenc.def" 1441490416 17606 2c9e881ec389ea7ece780755d29aa6bb ""
  "/usr/share/texlive/texmf-dist/tex/latex/greek-fontenc/lgrenc.def" 1454800128 39948 146f19f82b62c4fbacd851f213d16f29 ""
  "/usr/share/texlive/texmf-dist/tex/latex/hyperref/backref.sty" 1343599460 12774 d1688450b4ecd02c505d5e916261aafe ""
  "/usr/share/texlive/texmf-dist/tex/latex/hyperref/hpdftex.def" 1352416072 51837 247bd8424b3835ef78c236dc1e0b4aef ""
  "/usr/share/texlive/texmf-dist/tex/latex/hyperref/hyperref.sty" 1352416072 231792 5fc9dc7dd667e773a766ecc63bba7f4b ""
  "/usr/share/texlive/texmf-dist/tex/latex/hyperref/nameref.sty" 1351899753 12847 25b617d63258c4f72870c883493a3cf8 ""
  "/usr/share/texlive/texmf-dist/tex/latex/hyperref/pd1enc.def" 1352416072 14005 155ac8fad2e5dd7c2cdd130fabd96633 ""
  "/usr/share/texlive/texmf-dist/tex/latex/latexconfig/color.cfg" 1254097189 802 7b8c8d72c24d795ed7720e4dfd29bff3 ""
  "/usr/share/texlive/texmf-dist/tex/latex/latexconfig/epstopdf-sys.cfg" 1279039959 678 4792914a8f45be57bb98413425e4c7af ""
  "/usr/share/texlive/texmf-dist/tex/latex/latexconfig/graphics.cfg" 1278958963 3563 d35e897cae3b8c6848f6677b73370b54 ""
  "/usr/share/texlive/texmf-dist/tex/latex/latexconfig/hyperref.cfg" 1254097189 235 6031e5765137be07eed51a510b2b8fb7 ""
  "/usr/share/texlive/texmf-dist/tex/latex/lineno/lineno.sty" 1159951381 151738 8cd767481920f0eb785302dacfc87057 ""
  "/usr/share/texlive/texmf-dist/tex/latex/listings/listings.cfg" 1434304428 1827 d72ad54409ca5c1068a1939c63441bd2 ""
  "/usr/share/texlive/texmf-dist/tex/latex/listings/listings.sty" 1434304428 80336 ff90c926c3d7bfdaa3d80ca57123b0bb ""
  "/usr/share/texlive/texmf-dist/tex/latex/listings/lstlang1.sty" 1434304428 93445 48e5be20ba2d0a2ca5c4ce7e292a4bbc ""
  "/usr/share/texlive/texmf-dist/tex/latex/listings/lstmisc.sty" 1434304428 77028 c3eb00afb55a32bc13ca8da7f5234377 ""
  "/usr/share/texlive/texmf-dist/tex/latex/moreverb/moreverb.sty" 1303261271 5863 07095464939df437145876547e980c96 ""
  "/usr/share/texlive/texmf-dist/tex/latex/ms/everyshi.sty" 1177890616 3878 6aa7c08ff2621006e0603349e40a30a8 ""
  "/usr/share/texlive/texmf-dist/tex/latex/ntgclass/a4.sty" 1137110457 4634 297db5b00844da9a761d5b410c03f87c ""
  "/usr/share/texlive/texmf-dist/tex/latex/oberdiek/auxhook.sty" 1303254447 3834 707ef09f31d7d2ea47ba89974755dfe0 ""
  "/usr/share/texlive/texmf-dist/tex/latex/oberdiek/epstopdf-base.sty" 1303254447 12029 04d7fdf76e0464c23b5aa3a727952d7c ""
  "/usr/share/texlive/texmf-dist/tex/latex/oberdiek/grfext.sty" 1335995445 7075 bd0c34fbf1ae8fd1debd2a554e41b2d5 ""
  "/usr/share/texlive/texmf-dist/tex/latex/oberdiek/grffile.sty" 1335995445 13538 872e26de97981a41d6a160ff20de30a7 ""
  "/usr/share/texlive/texmf-dist/tex/latex/oberdiek/kvoptions.sty" 1335995445 22417 c74ff4af6a1aa2b65d1924020edbbe11 ""
  "/usr/share/texlive/texmf-dist/tex/latex/oberdiek/rerunfilecheck.sty" 1303254447 9581 1158efc648bc09d5064db5703c882159 ""
  "/usr/share/texlive/texmf-dist/tex/latex/paralist/paralist.sty" 1451601556 14760 8863d5c390e81d6de55db71ee012f668 ""
  "/usr/share/texlive/texmf-dist/tex/latex/pdftex-def/pdftex.def" 1306616590 55368 3c8a0d99822330f2dfabc0dfb09ce897 ""
  "/usr/share/texlive/texmf-dist/tex/latex/pgf/basiclayer/pgf.sty" 1439074469 1197 8a80cdde14696a9198f1793a55dcf332 ""
  "/usr/share/texlive/texmf-dist/tex/latex/pgf/basiclayer/pgfcore.sty" 1288312291 410 5bf12ea7330e5f12c445332a4fe9a263 ""
  "/usr/share/texlive/texmf-dist/tex/latex/pgf/compatibility/pgfcomp-version-0-65.sty" 1203877327 21115 facf03b7dbe5ea2f5f1dce1ac84b5d05 ""
  "/usr/share/texlive/texmf-dist/tex/latex/pgf/compatibility/pgfcomp-version-1-18.sty" 1203727794 1091 d9163d29def82ee90370c8a63667742c ""
  "/usr/share/texlive/texmf-dist/tex/latex/pgf/systemlayer/pgfsys.sty" 1393459310 443 0b2e781830192df35c0fd357cf13e26e ""
  "/usr/share/texlive/texmf-dist/tex/latex/pgf/utilities/pgfrcs.sty" 1203877327 325 2bcd023400636339210573e2b3ee298b ""
  "/usr/share/texlive/texmf-dist/tex/latex/placeins/placeins.sty" 1137110565 4087 636308456f60d2b31cbf97867db5708d ""
  "/usr/share/texlive/texmf-dist/tex/latex/psnfss/pifont.sty" 1156702453 2284 330328193b4aeb08dd45b0dd3e5ae732 ""
  "/usr/share/texlive/texmf-dist/tex/latex/psnfss/upsy.fd" 1137110629 148 2da0acd77cba348f34823f44cabf0058 ""
  "/usr/share/texlive/texmf-dist/tex/latex/psnfss/upzd.fd" 1137110629 148 b2a94082cb802f90d3daf6dd0c7188a0 ""
  "/usr/share/texlive/texmf-dist/tex/latex/rotating/rotating.sty" 1238284825 7131 a49b179ae7108fe42935176733099fc0 ""
  "/usr/share/texlive/texmf-dist/tex/latex/subfig/subfig.sty" 1158586182 21369 9ef165ca6df8815c92e693146a376c92 ""
  "/usr/share/texlive/texmf-dist/tex/latex/tcolorbox/tcolorbox.sty" 1456793617 78964 6d013f37d2ead98b69b1ee72b121f779 ""
  "/usr/share/texlive/texmf-dist/tex/latex/textpos/textpos.sty" 1388878944 11013 3acb1c95f412b6ae96ea34d059d72895 ""
  "/usr/share/texlive/texmf-dist/tex/latex/tocbibind/tocbibind.sty" 1287012853 8927 46f54e33fc9cef24f78ab3bc811cb63f ""
  "/usr/share/texlive/texmf-dist/tex/latex/tools/array.sty" 1454284088 13285 f3f53a6ffbd47ead3faa66a5e2be19b7 ""
  "/usr/share/texlive/texmf-dist/tex/latex/tools/longtable.sty" 1454284088 12083 80916157594a8e4354985aaefae4f367 ""
  "/usr/share/texlive/texmf-dist/tex/latex/tools/verbatim.sty" 1454284088 7264 cf839ee7f0c2bfc711b0b88970764569 ""
  "/usr/share/texlive/texmf-dist/tex/latex/trimspaces/trimspaces.sty" 1253232110 1380 971a51b00a14503ddf754cab24c3f209 ""
  "/usr/share/texlive/texmf-dist/tex/latex/url/url.sty" 1388531844 12796 8edb7d69a20b857904dd0ea757c14ec9 ""
  "/usr/share/texlive/texmf-dist/tex/latex/xcolor/xcolor.sty" 1169481954 55224 a43bab84e0ac5e6efcaf9a98bde73a94 ""
  "/usr/share/texlive/texmf-dist/tex/latex/xkeyval/xkeyval.sty" 1417732693 4962 9c1069474ff71dbc47d5006555e352d3 ""
  "/usr/share/texlive/texmf-dist/web2c/texmf.cnf" 1458942643 31351 b32c45dce4a01cb7b53ed90c546614ca ""
  "/usr/share/texmf/web2c/texmf.cnf" 1458942643 31351 b32c45dce4a01cb7b53ed90c546614ca ""
  "/var/lib/texmf/fonts/map/pdftex/updmap/pdftex.map" 1462188922 1863403 f3ff9a4253bcb5fb9a9baaf0c572cb01 ""
  "/var/lib/texmf/web2c/pdftex/pdflatex.fmt" 1462188968 3855689 3f9fadfe1410d8893fce234b1aed6fe3 ""
  "appendices/main.tex" 1475744214 245 2d71c604a20068caf09000bfb960e3b2 ""
  "chapters/a.tex" 1475744214 32995 970ebefaac0ed35bf5fafc867312c077 ""
  "chapters/abstract.tex" 1475744214 260 f22bd7c46180d061866955371dc84695 ""
  "chapters/conclusions.tex" 1475744214 28 c23d4a0533e9100193cc48c0014dbcdc ""
  "chapters/introduction.tex" 1475744214 688 e520cb39460ca402e177513b760faa83 ""
  "chapters/second_real_chapter.tex" 1475744214 28 adfea7604bb336b85ae9e0f49d1b8776 ""
  "figures/tue-logo-high.PNG" 1475744214 29796 0ed0e34800cbf4713d14af846c5ea62d ""
  "report.aux" 1475744998 5886 ecde0a9f3f3f3887ebdf453a6f18b7f6 ""
  "report.bbl" 1475744991 189 5a23b5f14b72f7955e66498871e48e27 "bibtex report"
  "report.brf" 1475744998 42 9f58d1e1d976fcd9a029aa26990afc1b ""
  "report.out" 1475744998 933 aa29013bd6d2ff951636ea04b58e1b77 ""
  "report.tex" 1475745012 3479 ed48d792b418e3eac817c7e9a531fc3e ""
  "report.toc" 1475744998 1759 354ed2927d3ecf1b6a740d742ff37893 ""
  "thesis.sty" 1475744214 6354 a22733c86b44cf983bcc9ce457f63c2c ""
  "titlepage.aux" 1475744998 1086 9e5314fe9d2ce896e4a1de9605629b44 ""
  "titlepage.tex" 1475744214 1276 7a17aefb35826c9a5a3d365f73f729cb ""
  (generated)
  "titlepage.aux"
  "report.toc"
  "report.pdf"
  "report.log"
  "report.aux"
  "report.brf"
  "report.out"
